{"failedCount":0,"prefixedPath":"classpath:Features\/getwithquery.feature","packageQualifiedName":"Features.getwithquery","loopIndex":-1,"relativePath":"Features\/getwithquery.feature","scenarioResults":[{"sectionIndex":0,"stepResults":[{"result":{"nanos":222200,"millis":0.2222,"status":"passed"},"step":{"line":5,"prefix":"*","index":0,"text":"def query = {status : 'active' , gender : 'male' }"}},{"result":{"nanos":184800,"millis":0.1848,"status":"passed"},"step":{"line":6,"prefix":"Given","index":1,"text":"url 'https:\/\/gorest.co.in\/public\/v1\/users\/'"}},{"result":{"nanos":108200,"millis":0.1082,"status":"passed"},"step":{"line":7,"prefix":"And","index":2,"text":"params query"}},{"result":{"nanos":241594400,"millis":241.5944,"status":"passed"},"step":{"line":8,"prefix":"When","index":3,"text":"method GET"},"stepLog":"18:11:04.017 request:\n1 > GET https:\/\/gorest.co.in\/public\/v1\/users\/?gender=male&status=active\n1 > Host: gorest.co.in\n1 > Connection: Keep-Alive\n1 > User-Agent: Apache-HttpClient\/4.5.12 (Java\/1.8.0_311)\n1 > Accept-Encoding: gzip,deflate\n\n\n18:11:04.266 response time in milliseconds: 249\n1 < 200\n1 < Date: Thu, 21 Jul 2022 12:41:03 GMT\n1 < Content-Type: application\/json; charset=utf-8\n1 < Transfer-Encoding: chunked\n1 < Connection: keep-alive\n1 < Vary: Accept-Encoding\n1 < Vary: Origin\n1 < X-Frame-Options: SAMEORIGIN\n1 < X-XSS-Protection: 0\n1 < X-Content-Type-Options: nosniff\n1 < X-Download-Options: noopen\n1 < X-Permitted-Cross-Domain-Policies: none\n1 < Referrer-Policy: strict-origin-when-cross-origin\n1 < ETag: W\/\"9d7bc212e5c5130ade2cd5e50ba68cfe\"\n1 < Cache-Control: max-age=0, private, must-revalidate\n1 < X-Request-Id: f9e91079-78f7-4f63-a64f-e21a0e9d0a28\n1 < X-Runtime: 0.006396\n1 < Strict-Transport-Security: max-age=63072000; includeSubDomains\n1 < CF-Cache-Status: DYNAMIC\n1 < Expect-CT: max-age=604800, report-uri=\"https:\/\/report-uri.cloudflare.com\/cdn-cgi\/beacon\/expect-ct\"\n1 < Report-To: {\"endpoints\":[{\"url\":\"https:\\\/\\\/a.nel.cloudflare.com\\\/report\\\/v3?s=13osVmZGlgfLK%2FyJQS4LzunMCPDNP0YeJBSHCLHv1axwSbXCnSSRGIx4ErQiQT0Y%2FUSskIkrzq2d1ZLHgyxnpFYEgj7N7Ql5G%2BCsbr7r3igyWogdaCeygQUexDdTrzg%3D\"}],\"group\":\"cf-nel\",\"max_age\":604800}\n1 < NEL: {\"success_fraction\":0,\"report_to\":\"cf-nel\",\"max_age\":604800}\n1 < Server: cloudflare\n1 < CF-RAY: 72e40235b84b7a22-PAT\n1 < alt-svc: h3=\":443\"; ma=86400, h3-29=\":443\"; ma=86400\n{\"meta\":{\"pagination\":{\"total\":671,\"pages\":68,\"page\":1,\"limit\":10,\"links\":{\"previous\":null,\"current\":\"https:\/\/gorest.co.in\/public\/v1\/users?page=1\",\"next\":\"https:\/\/gorest.co.in\/public\/v1\/users?page=2\"}}},\"data\":[{\"id\":2626,\"name\":\"Mr. Darshan Mehrotra\",\"email\":\"mr_darshan_mehrotra@haley-donnelly.info\",\"gender\":\"male\",\"status\":\"active\"},{\"id\":2621,\"name\":\"Prof. Lakshmidhar Asan\",\"email\":\"prof_asan_lakshmidhar@kemmer-pfeffer.org\",\"gender\":\"male\",\"status\":\"active\"},{\"id\":2617,\"name\":\"Mr. Dinkar Naik\",\"email\":\"naik_mr_dinkar@stark-schimmel.biz\",\"gender\":\"male\",\"status\":\"active\"},{\"id\":2615,\"name\":\"Dr. Nawal Joshi\",\"email\":\"nawal_joshi_dr@farrell.info\",\"gender\":\"male\",\"status\":\"active\"},{\"id\":2614,\"name\":\"Dhanu Menon\",\"email\":\"menon_dhanu@weber-nienow.io\",\"gender\":\"male\",\"status\":\"active\"},{\"id\":2612,\"name\":\"Kanaka Tagore Jr.\",\"email\":\"kanaka_jr_tagore@howe.org\",\"gender\":\"male\",\"status\":\"active\"},{\"id\":2602,\"name\":\"Bhoj Devar\",\"email\":\"bhoj_devar@pouros-heathcote.biz\",\"gender\":\"male\",\"status\":\"active\"},{\"id\":2599,\"name\":\"Girindra Kaniyar DO\",\"email\":\"kaniyar_girindra_do@weimann-mitchell.io\",\"gender\":\"male\",\"status\":\"active\"},{\"id\":2583,\"name\":\"Rep. Saraswati Mehra\",\"email\":\"rep_mehra_saraswati@rolfson-becker.com\",\"gender\":\"male\",\"status\":\"active\"},{\"id\":2579,\"name\":\"Fr. Chaturbhuj Desai\",\"email\":\"fr_chaturbhuj_desai@dickinson-prosacco.io\",\"gender\":\"male\",\"status\":\"active\"}]}\n\n"},{"result":{"nanos":7600,"millis":0.0076,"status":"passed"},"step":{"line":9,"prefix":"Then","index":4,"text":"status 200"}},{"result":{"nanos":1254900,"millis":1.2549,"status":"passed"},"step":{"line":10,"prefix":"*","index":5,"text":"print response"},"stepLog":"18:11:04.266 [print] {\n  \"meta\": {\n    \"pagination\": {\n      \"total\": 671,\n      \"pages\": 68,\n      \"page\": 1,\n      \"limit\": 10,\n      \"links\": {\n        \"previous\": null,\n        \"current\": \"https:\/\/gorest.co.in\/public\/v1\/users?page=1\",\n        \"next\": \"https:\/\/gorest.co.in\/public\/v1\/users?page=2\"\n      }\n    }\n  },\n  \"data\": [\n    {\n      \"id\": 2626,\n      \"name\": \"Mr. Darshan Mehrotra\",\n      \"email\": \"mr_darshan_mehrotra@haley-donnelly.info\",\n      \"gender\": \"male\",\n      \"status\": \"active\"\n    },\n    {\n      \"id\": 2621,\n      \"name\": \"Prof. Lakshmidhar Asan\",\n      \"email\": \"prof_asan_lakshmidhar@kemmer-pfeffer.org\",\n      \"gender\": \"male\",\n      \"status\": \"active\"\n    },\n    {\n      \"id\": 2617,\n      \"name\": \"Mr. Dinkar Naik\",\n      \"email\": \"naik_mr_dinkar@stark-schimmel.biz\",\n      \"gender\": \"male\",\n      \"status\": \"active\"\n    },\n    {\n      \"id\": 2615,\n      \"name\": \"Dr. Nawal Joshi\",\n      \"email\": \"nawal_joshi_dr@farrell.info\",\n      \"gender\": \"male\",\n      \"status\": \"active\"\n    },\n    {\n      \"id\": 2614,\n      \"name\": \"Dhanu Menon\",\n      \"email\": \"menon_dhanu@weber-nienow.io\",\n      \"gender\": \"male\",\n      \"status\": \"active\"\n    },\n    {\n      \"id\": 2612,\n      \"name\": \"Kanaka Tagore Jr.\",\n      \"email\": \"kanaka_jr_tagore@howe.org\",\n      \"gender\": \"male\",\n      \"status\": \"active\"\n    },\n    {\n      \"id\": 2602,\n      \"name\": \"Bhoj Devar\",\n      \"email\": \"bhoj_devar@pouros-heathcote.biz\",\n      \"gender\": \"male\",\n      \"status\": \"active\"\n    },\n    {\n      \"id\": 2599,\n      \"name\": \"Girindra Kaniyar DO\",\n      \"email\": \"kaniyar_girindra_do@weimann-mitchell.io\",\n      \"gender\": \"male\",\n      \"status\": \"active\"\n    },\n    {\n      \"id\": 2583,\n      \"name\": \"Rep. Saraswati Mehra\",\n      \"email\": \"rep_mehra_saraswati@rolfson-becker.com\",\n      \"gender\": \"male\",\n      \"status\": \"active\"\n    },\n    {\n      \"id\": 2579,\n      \"name\": \"Fr. Chaturbhuj Desai\",\n      \"email\": \"fr_chaturbhuj_desai@dickinson-prosacco.io\",\n      \"gender\": \"male\",\n      \"status\": \"active\"\n    }\n  ]\n}\n \n"},{"result":{"nanos":2807200,"millis":2.8072,"status":"passed"},"step":{"line":11,"prefix":"*","index":6,"text":"def temp = response"}},{"result":{"nanos":811800,"millis":0.8118,"status":"passed"},"step":{"line":12,"prefix":"*","index":7,"text":"print temp.id"},"stepLog":"18:11:04.266 [print] null \n"},{"result":{"nanos":540200,"millis":0.5402,"status":"passed"},"step":{"line":13,"prefix":"*","index":8,"text":"def count = temp.data.length"}},{"result":{"nanos":1920500,"millis":1.9205,"status":"passed"},"step":{"line":14,"prefix":"*","index":9,"text":"print count"},"stepLog":"18:11:04.266 [print] 10 \n"}],"line":3,"description":"","durationMillis":249.4518,"failed":false,"tags":["SmokeTest","RegressionTest"],"executorName":"main","name":"Get Details using get method","startTime":1658407264017,"refId":"[1:3]","endTime":1658407264266,"exampleIndex":-1}],"callDepth":0,"name":"get Method Json Example","description":"","resultDate":"2022-07-21 06:11:04 PM","durationMillis":249.4518,"passedCount":1}