{"failedCount":0,"prefixedPath":"classpath:Features\/getwithquery.feature","packageQualifiedName":"Features.getwithquery","loopIndex":-1,"relativePath":"Features\/getwithquery.feature","scenarioResults":[{"sectionIndex":0,"stepResults":[{"result":{"nanos":72850800,"millis":72.8508,"status":"passed"},"step":{"line":5,"prefix":"*","index":0,"text":"def query = {status : 'active' , gender : 'male' }"}},{"result":{"nanos":2107900,"millis":2.1079,"status":"passed"},"step":{"line":6,"prefix":"Given","index":1,"text":"url 'https:\/\/gorest.co.in\/public\/v1\/users\/'"}},{"result":{"nanos":2666100,"millis":2.6661,"status":"passed"},"step":{"line":7,"prefix":"And","index":2,"text":"params query"}},{"result":{"nanos":3415080100,"millis":3415.0801,"status":"passed"},"step":{"line":8,"prefix":"When","index":3,"text":"method GET"},"stepLog":"16:38:28.970 request:\n1 > GET https:\/\/gorest.co.in\/public\/v1\/users\/?gender=male&status=active\n1 > Host: gorest.co.in\n1 > Connection: Keep-Alive\n1 > User-Agent: Apache-HttpClient\/4.5.12 (Java\/1.8.0_311)\n1 > Accept-Encoding: gzip,deflate\n\n\n16:38:30.634 response time in milliseconds: 1653\n1 < 200\n1 < Date: Thu, 21 Jul 2022 11:08:29 GMT\n1 < Content-Type: application\/json; charset=utf-8\n1 < Transfer-Encoding: chunked\n1 < Connection: keep-alive\n1 < Vary: Accept-Encoding\n1 < Vary: Origin\n1 < X-Frame-Options: SAMEORIGIN\n1 < X-XSS-Protection: 0\n1 < X-Content-Type-Options: nosniff\n1 < X-Download-Options: noopen\n1 < X-Permitted-Cross-Domain-Policies: none\n1 < Referrer-Policy: strict-origin-when-cross-origin\n1 < ETag: W\/\"266eec5716c58a73c45fda9ebd078a93\"\n1 < Cache-Control: max-age=0, private, must-revalidate\n1 < X-Request-Id: 44692065-c3a6-46bc-9fc6-bc3559e7c64a\n1 < X-Runtime: 0.006760\n1 < Strict-Transport-Security: max-age=63072000; includeSubDomains\n1 < CF-Cache-Status: DYNAMIC\n1 < Expect-CT: max-age=604800, report-uri=\"https:\/\/report-uri.cloudflare.com\/cdn-cgi\/beacon\/expect-ct\"\n1 < Report-To: {\"endpoints\":[{\"url\":\"https:\\\/\\\/a.nel.cloudflare.com\\\/report\\\/v3?s=9nt3uxu7FcMonHEdtoP0hLuHz1MosVRDO2cU62lLY0GXcpxSB%2BQNSjvmbOfQmjcyu3FMPybuVVU4pfqzjnFHv1vPeoURZgIg7DkOEzWHr14r74hiKu3sNh4GJC%2Bc6OA%3D\"}],\"group\":\"cf-nel\",\"max_age\":604800}\n1 < NEL: {\"success_fraction\":0,\"report_to\":\"cf-nel\",\"max_age\":604800}\n1 < Server: cloudflare\n1 < CF-RAY: 72e37a9cca9c7a25-PAT\n1 < alt-svc: h3=\":443\"; ma=86400, h3-29=\":443\"; ma=86400\n{\"meta\":{\"pagination\":{\"total\":674,\"pages\":68,\"page\":1,\"limit\":10,\"links\":{\"previous\":null,\"current\":\"https:\/\/gorest.co.in\/public\/v1\/users?page=1\",\"next\":\"https:\/\/gorest.co.in\/public\/v1\/users?page=2\"}}},\"data\":[{\"id\":2630,\"name\":\"Mrs. Harinakshi Prajapat\",\"email\":\"mrs_prajapat_harinakshi@pollich.com\",\"gender\":\"male\",\"status\":\"active\"},{\"id\":2626,\"name\":\"Mr. Darshan Mehrotra\",\"email\":\"mr_darshan_mehrotra@haley-donnelly.info\",\"gender\":\"male\",\"status\":\"active\"},{\"id\":2621,\"name\":\"Prof. Lakshmidhar Asan\",\"email\":\"prof_asan_lakshmidhar@kemmer-pfeffer.org\",\"gender\":\"male\",\"status\":\"active\"},{\"id\":2617,\"name\":\"Mr. Dinkar Naik\",\"email\":\"naik_mr_dinkar@stark-schimmel.biz\",\"gender\":\"male\",\"status\":\"active\"},{\"id\":2615,\"name\":\"Dr. Nawal Joshi\",\"email\":\"nawal_joshi_dr@farrell.info\",\"gender\":\"male\",\"status\":\"active\"},{\"id\":2614,\"name\":\"Dhanu Menon\",\"email\":\"menon_dhanu@weber-nienow.io\",\"gender\":\"male\",\"status\":\"active\"},{\"id\":2612,\"name\":\"Kanaka Tagore Jr.\",\"email\":\"kanaka_jr_tagore@howe.org\",\"gender\":\"male\",\"status\":\"active\"},{\"id\":2602,\"name\":\"Bhoj Devar\",\"email\":\"bhoj_devar@pouros-heathcote.biz\",\"gender\":\"male\",\"status\":\"active\"},{\"id\":2599,\"name\":\"Girindra Kaniyar DO\",\"email\":\"kaniyar_girindra_do@weimann-mitchell.io\",\"gender\":\"male\",\"status\":\"active\"},{\"id\":2598,\"name\":\"Sanya Shukla\",\"email\":\"sanya_shukla@denesik-stark.org\",\"gender\":\"male\",\"status\":\"active\"}]}\n\n"},{"result":{"nanos":38600,"millis":0.0386,"status":"passed"},"step":{"line":9,"prefix":"Then","index":4,"text":"status 200"}},{"result":{"nanos":758516700,"millis":758.5167,"status":"passed"},"step":{"line":10,"prefix":"*","index":5,"text":"print response"},"stepLog":"16:38:31.397 [print] {\n  \"meta\": {\n    \"pagination\": {\n      \"total\": 674,\n      \"pages\": 68,\n      \"page\": 1,\n      \"limit\": 10,\n      \"links\": {\n        \"previous\": null,\n        \"current\": \"https:\/\/gorest.co.in\/public\/v1\/users?page=1\",\n        \"next\": \"https:\/\/gorest.co.in\/public\/v1\/users?page=2\"\n      }\n    }\n  },\n  \"data\": [\n    {\n      \"id\": 2630,\n      \"name\": \"Mrs. Harinakshi Prajapat\",\n      \"email\": \"mrs_prajapat_harinakshi@pollich.com\",\n      \"gender\": \"male\",\n      \"status\": \"active\"\n    },\n    {\n      \"id\": 2626,\n      \"name\": \"Mr. Darshan Mehrotra\",\n      \"email\": \"mr_darshan_mehrotra@haley-donnelly.info\",\n      \"gender\": \"male\",\n      \"status\": \"active\"\n    },\n    {\n      \"id\": 2621,\n      \"name\": \"Prof. Lakshmidhar Asan\",\n      \"email\": \"prof_asan_lakshmidhar@kemmer-pfeffer.org\",\n      \"gender\": \"male\",\n      \"status\": \"active\"\n    },\n    {\n      \"id\": 2617,\n      \"name\": \"Mr. Dinkar Naik\",\n      \"email\": \"naik_mr_dinkar@stark-schimmel.biz\",\n      \"gender\": \"male\",\n      \"status\": \"active\"\n    },\n    {\n      \"id\": 2615,\n      \"name\": \"Dr. Nawal Joshi\",\n      \"email\": \"nawal_joshi_dr@farrell.info\",\n      \"gender\": \"male\",\n      \"status\": \"active\"\n    },\n    {\n      \"id\": 2614,\n      \"name\": \"Dhanu Menon\",\n      \"email\": \"menon_dhanu@weber-nienow.io\",\n      \"gender\": \"male\",\n      \"status\": \"active\"\n    },\n    {\n      \"id\": 2612,\n      \"name\": \"Kanaka Tagore Jr.\",\n      \"email\": \"kanaka_jr_tagore@howe.org\",\n      \"gender\": \"male\",\n      \"status\": \"active\"\n    },\n    {\n      \"id\": 2602,\n      \"name\": \"Bhoj Devar\",\n      \"email\": \"bhoj_devar@pouros-heathcote.biz\",\n      \"gender\": \"male\",\n      \"status\": \"active\"\n    },\n    {\n      \"id\": 2599,\n      \"name\": \"Girindra Kaniyar DO\",\n      \"email\": \"kaniyar_girindra_do@weimann-mitchell.io\",\n      \"gender\": \"male\",\n      \"status\": \"active\"\n    },\n    {\n      \"id\": 2598,\n      \"name\": \"Sanya Shukla\",\n      \"email\": \"sanya_shukla@denesik-stark.org\",\n      \"gender\": \"male\",\n      \"status\": \"active\"\n    }\n  ]\n}\n \n"},{"result":{"nanos":1070800,"millis":1.0708,"status":"passed"},"step":{"line":11,"prefix":"*","index":6,"text":"def temp = response"}},{"result":{"nanos":6142100,"millis":6.1421,"status":"passed"},"step":{"line":12,"prefix":"*","index":7,"text":"print temp.id"},"stepLog":"16:38:31.405 [print] null \n"},{"result":{"nanos":2517900,"millis":2.5179,"status":"passed"},"step":{"line":13,"prefix":"*","index":8,"text":"def count = temp.data.length"}},{"result":{"nanos":2169400,"millis":2.1694,"status":"passed"},"step":{"line":14,"prefix":"*","index":9,"text":"print count"},"stepLog":"16:38:31.407 [print] 10 \n"}],"line":3,"description":"","durationMillis":4263.1604,"failed":false,"tags":["SmokeTest","RegressionTest"],"executorName":"main","name":"Get Details using get method","startTime":1658401707087,"refId":"[1:3]","endTime":1658401711407,"exampleIndex":-1}],"callDepth":0,"name":"get Method Json Example","description":"","resultDate":"2022-07-21 04:38:31 PM","durationMillis":4263.1604,"passedCount":1}