{"failedCount":0,"prefixedPath":"classpath:Features\/getwithquery.feature","packageQualifiedName":"Features.getwithquery","loopIndex":-1,"relativePath":"Features\/getwithquery.feature","scenarioResults":[{"sectionIndex":0,"stepResults":[{"result":{"nanos":1841300,"millis":1.8413,"status":"passed"},"step":{"line":5,"prefix":"*","index":0,"text":"def query = {status : 'active' , gender : 'male' }"}},{"result":{"nanos":484400,"millis":0.4844,"status":"passed"},"step":{"line":6,"prefix":"Given","index":1,"text":"url 'https:\/\/gorest.co.in\/public\/v1\/users\/'"}},{"result":{"nanos":4579100,"millis":4.5791,"status":"passed"},"step":{"line":7,"prefix":"And","index":2,"text":"params query"}},{"result":{"nanos":237540100,"millis":237.5401,"status":"passed"},"step":{"line":8,"prefix":"When","index":3,"text":"method GET"},"stepLog":"12:05:21.305 request:\n1 > GET https:\/\/gorest.co.in\/public\/v1\/users\/?gender=male&status=active\n1 > Host: gorest.co.in\n1 > Connection: Keep-Alive\n1 > User-Agent: Apache-HttpClient\/4.5.12 (Java\/16.0.1)\n1 > Accept-Encoding: gzip,deflate\n\n\n12:05:21.533 response time in milliseconds: 228\n1 < 200\n1 < Date: Sun, 17 Jul 2022 06:35:21 GMT\n1 < Content-Type: application\/json; charset=utf-8\n1 < Transfer-Encoding: chunked\n1 < Connection: keep-alive\n1 < Vary: Accept-Encoding\n1 < Vary: Origin\n1 < X-Frame-Options: SAMEORIGIN\n1 < X-XSS-Protection: 0\n1 < X-Content-Type-Options: nosniff\n1 < X-Download-Options: noopen\n1 < X-Permitted-Cross-Domain-Policies: none\n1 < Referrer-Policy: strict-origin-when-cross-origin\n1 < ETag: W\/\"d2d8c988f0c56ae001193ce9d7dd9da4\"\n1 < Cache-Control: max-age=0, private, must-revalidate\n1 < X-Request-Id: 7f30d162-0707-4b51-b5da-a4d7dca63c81\n1 < X-Runtime: 0.007249\n1 < Strict-Transport-Security: max-age=63072000; includeSubDomains\n1 < CF-Cache-Status: DYNAMIC\n1 < Expect-CT: max-age=604800, report-uri=\"https:\/\/report-uri.cloudflare.com\/cdn-cgi\/beacon\/expect-ct\"\n1 < Report-To: {\"endpoints\":[{\"url\":\"https:\\\/\\\/a.nel.cloudflare.com\\\/report\\\/v3?s=SteVOvgUwo56azQGHUzjaWMqdR1FVk4xvn%2FZf8G6WgPq9dAoFlnQ2JSxyMmnNR6GPDktmQXUx4EXxTF6u3zKOIuNmymiPUpXFWuPShBQKcfhfi1X88L2e%2F1Jd3vFZ7Y%3D\"}],\"group\":\"cf-nel\",\"max_age\":604800}\n1 < NEL: {\"success_fraction\":0,\"report_to\":\"cf-nel\",\"max_age\":604800}\n1 < Server: cloudflare\n1 < CF-RAY: 72c0f5049e6193c7-CCU\n1 < alt-svc: h3=\":443\"; ma=86400, h3-29=\":443\"; ma=86400\n{\"meta\":{\"pagination\":{\"total\":973,\"pages\":98,\"page\":1,\"limit\":10,\"links\":{\"previous\":null,\"current\":\"https:\/\/gorest.co.in\/public\/v1\/users?page=1\",\"next\":\"https:\/\/gorest.co.in\/public\/v1\/users?page=2\"}}},\"data\":[{\"id\":3853,\"name\":\"Daksha Patel MD\",\"email\":\"patel_daksha_md@ferry.com\",\"gender\":\"male\",\"status\":\"active\"},{\"id\":3852,\"name\":\"Tanushri Mehra\",\"email\":\"mehra_tanushri@corwin.biz\",\"gender\":\"male\",\"status\":\"active\"},{\"id\":3846,\"name\":\"Gauraang Acharya\",\"email\":\"gauraang_acharya@hand.name\",\"gender\":\"male\",\"status\":\"active\"},{\"id\":3845,\"name\":\"Dayaananda Bhattathiri\",\"email\":\"bhattathiri_dayaananda@bauch.info\",\"gender\":\"male\",\"status\":\"active\"},{\"id\":3841,\"name\":\"Subhash Agarwal\",\"email\":\"subhash_agarwal@towne.io\",\"gender\":\"male\",\"status\":\"active\"},{\"id\":3838,\"name\":\"Ms. Rupinder Gandhi\",\"email\":\"ms_gandhi_rupinder@borer-powlowski.net\",\"gender\":\"male\",\"status\":\"active\"},{\"id\":3833,\"name\":\"Bhuvaneshwar Khan II\",\"email\":\"bhuvaneshwar_khan_ii@kerluke.com\",\"gender\":\"male\",\"status\":\"active\"},{\"id\":3827,\"name\":\"Bakula Tandon VM\",\"email\":\"tandon_vm_bakula@hartmann-kunze.io\",\"gender\":\"male\",\"status\":\"active\"},{\"id\":3825,\"name\":\"Kashyap Pandey\",\"email\":\"pandey_kashyap@langosh-casper.com\",\"gender\":\"male\",\"status\":\"active\"},{\"id\":3824,\"name\":\"Amodini Deshpande\",\"email\":\"amodini_deshpande@schultz.org\",\"gender\":\"male\",\"status\":\"active\"}]}\n\n"},{"result":{"nanos":14300,"millis":0.0143,"status":"passed"},"step":{"line":9,"prefix":"Then","index":4,"text":"status 200"}},{"result":{"nanos":1165000,"millis":1.165,"status":"passed"},"step":{"line":10,"prefix":"*","index":5,"text":"print response"},"stepLog":"12:05:21.536 [print] {\n  \"meta\": {\n    \"pagination\": {\n      \"total\": 973,\n      \"pages\": 98,\n      \"page\": 1,\n      \"limit\": 10,\n      \"links\": {\n        \"previous\": null,\n        \"current\": \"https:\/\/gorest.co.in\/public\/v1\/users?page=1\",\n        \"next\": \"https:\/\/gorest.co.in\/public\/v1\/users?page=2\"\n      }\n    }\n  },\n  \"data\": [\n    {\n      \"id\": 3853,\n      \"name\": \"Daksha Patel MD\",\n      \"email\": \"patel_daksha_md@ferry.com\",\n      \"gender\": \"male\",\n      \"status\": \"active\"\n    },\n    {\n      \"id\": 3852,\n      \"name\": \"Tanushri Mehra\",\n      \"email\": \"mehra_tanushri@corwin.biz\",\n      \"gender\": \"male\",\n      \"status\": \"active\"\n    },\n    {\n      \"id\": 3846,\n      \"name\": \"Gauraang Acharya\",\n      \"email\": \"gauraang_acharya@hand.name\",\n      \"gender\": \"male\",\n      \"status\": \"active\"\n    },\n    {\n      \"id\": 3845,\n      \"name\": \"Dayaananda Bhattathiri\",\n      \"email\": \"bhattathiri_dayaananda@bauch.info\",\n      \"gender\": \"male\",\n      \"status\": \"active\"\n    },\n    {\n      \"id\": 3841,\n      \"name\": \"Subhash Agarwal\",\n      \"email\": \"subhash_agarwal@towne.io\",\n      \"gender\": \"male\",\n      \"status\": \"active\"\n    },\n    {\n      \"id\": 3838,\n      \"name\": \"Ms. Rupinder Gandhi\",\n      \"email\": \"ms_gandhi_rupinder@borer-powlowski.net\",\n      \"gender\": \"male\",\n      \"status\": \"active\"\n    },\n    {\n      \"id\": 3833,\n      \"name\": \"Bhuvaneshwar Khan II\",\n      \"email\": \"bhuvaneshwar_khan_ii@kerluke.com\",\n      \"gender\": \"male\",\n      \"status\": \"active\"\n    },\n    {\n      \"id\": 3827,\n      \"name\": \"Bakula Tandon VM\",\n      \"email\": \"tandon_vm_bakula@hartmann-kunze.io\",\n      \"gender\": \"male\",\n      \"status\": \"active\"\n    },\n    {\n      \"id\": 3825,\n      \"name\": \"Kashyap Pandey\",\n      \"email\": \"pandey_kashyap@langosh-casper.com\",\n      \"gender\": \"male\",\n      \"status\": \"active\"\n    },\n    {\n      \"id\": 3824,\n      \"name\": \"Amodini Deshpande\",\n      \"email\": \"amodini_deshpande@schultz.org\",\n      \"gender\": \"male\",\n      \"status\": \"active\"\n    }\n  ]\n}\n \n"},{"result":{"nanos":378100,"millis":0.3781,"status":"passed"},"step":{"line":11,"prefix":"*","index":6,"text":"def temp = response"}},{"result":{"nanos":849000,"millis":0.849,"status":"passed"},"step":{"line":12,"prefix":"*","index":7,"text":"print temp.id"},"stepLog":"12:05:21.538 [print] null \n"},{"result":{"nanos":1435500,"millis":1.4355,"status":"passed"},"step":{"line":13,"prefix":"*","index":8,"text":"def count = temp.data.length"}},{"result":{"nanos":1150900,"millis":1.1509,"status":"passed"},"step":{"line":14,"prefix":"*","index":9,"text":"print count"},"stepLog":"12:05:21.540 [print] 10 \n"}],"line":3,"description":"","durationMillis":249.4377,"failed":false,"tags":["SmokeTest","RegressionTest"],"executorName":"main","name":"Get Details using get method","startTime":1658039721291,"refId":"[1:3]","endTime":1658039721541,"exampleIndex":-1}],"callDepth":0,"name":"get Method Json Example","description":"","resultDate":"2022-07-17 12:05:21 pm","durationMillis":249.4377,"passedCount":1}