{"failedCount":0,"prefixedPath":"classpath:Features\/getwithquery.feature","packageQualifiedName":"Features.getwithquery","loopIndex":-1,"relativePath":"Features\/getwithquery.feature","scenarioResults":[{"sectionIndex":0,"stepResults":[{"result":{"nanos":149104901,"millis":149.104901,"status":"passed"},"step":{"line":5,"prefix":"*","index":0,"text":"def query = {status : 'active' , gender : 'male' }"}},{"result":{"nanos":39218100,"millis":39.2181,"status":"passed"},"step":{"line":6,"prefix":"Given","index":1,"text":"url 'https:\/\/gorest.co.in\/public\/v1\/users\/'"}},{"result":{"nanos":73323600,"millis":73.3236,"status":"passed"},"step":{"line":7,"prefix":"And","index":2,"text":"params query"}},{"result":{"nanos":2290570001,"millis":2290.570001,"status":"passed"},"step":{"line":8,"prefix":"When","index":3,"text":"method GET"},"stepLog":"14:11:16.643 request:\n1 > GET https:\/\/gorest.co.in\/public\/v1\/users\/?gender=male&status=active\n1 > Host: gorest.co.in\n1 > Connection: Keep-Alive\n1 > User-Agent: Apache-HttpClient\/4.5.12 (Java\/1.8.0_311)\n1 > Accept-Encoding: gzip,deflate\n\n\n14:11:17.891 response time in milliseconds: 1232\n1 < 200\n1 < Date: Mon, 11 Jul 2022 08:41:17 GMT\n1 < Content-Type: application\/json; charset=utf-8\n1 < Transfer-Encoding: chunked\n1 < Connection: keep-alive\n1 < Vary: Accept-Encoding\n1 < Vary: Origin\n1 < X-Frame-Options: SAMEORIGIN\n1 < X-XSS-Protection: 0\n1 < X-Content-Type-Options: nosniff\n1 < X-Download-Options: noopen\n1 < X-Permitted-Cross-Domain-Policies: none\n1 < Referrer-Policy: strict-origin-when-cross-origin\n1 < ETag: W\/\"0a0dadd6dcf3b43a95d5c615b595fa31\"\n1 < Cache-Control: max-age=0, private, must-revalidate\n1 < X-Request-Id: 5abf2c38-e864-41d5-ba8b-496da3a4fdef\n1 < X-Runtime: 0.007191\n1 < Strict-Transport-Security: max-age=63072000; includeSubDomains\n1 < CF-Cache-Status: DYNAMIC\n1 < Expect-CT: max-age=604800, report-uri=\"https:\/\/report-uri.cloudflare.com\/cdn-cgi\/beacon\/expect-ct\"\n1 < Report-To: {\"endpoints\":[{\"url\":\"https:\\\/\\\/a.nel.cloudflare.com\\\/report\\\/v3?s=A9Mpjf%2FWs%2FHZ5NDFz1VH4CTjkPwssDqctTbpXbEmzTUj5lh8AHJT%2BFKh16HyY5Mn0comIXvSvq2%2FLH2It6ApdosryFWf039u5qIkZliJHB30mvPfq0YDyJIPV7ywsK0%3D\"}],\"group\":\"cf-nel\",\"max_age\":604800}\n1 < NEL: {\"success_fraction\":0,\"report_to\":\"cf-nel\",\"max_age\":604800}\n1 < Server: cloudflare\n1 < CF-RAY: 72903d364b7793c1-CCU\n1 < alt-svc: h3=\":443\"; ma=86400, h3-29=\":443\"; ma=86400\n{\"meta\":{\"pagination\":{\"total\":1002,\"pages\":101,\"page\":1,\"limit\":10,\"links\":{\"previous\":null,\"current\":\"https:\/\/gorest.co.in\/public\/v1\/users?page=1\",\"next\":\"https:\/\/gorest.co.in\/public\/v1\/users?page=2\"}}},\"data\":[{\"id\":3919,\"name\":\"Bhudeva Khan\",\"email\":\"bhudeva_khan@goldner.net\",\"gender\":\"male\",\"status\":\"active\"},{\"id\":3918,\"name\":\"Tanya Dubashi V\",\"email\":\"v_tanya_dubashi@kihn-nolan.org\",\"gender\":\"male\",\"status\":\"active\"},{\"id\":3911,\"name\":\"Mr. Soma Chaturvedi\",\"email\":\"mr_soma_chaturvedi@wilderman.name\",\"gender\":\"male\",\"status\":\"active\"},{\"id\":3909,\"name\":\"Kannan Iyer\",\"email\":\"iyer_kannan@schmeler.net\",\"gender\":\"male\",\"status\":\"active\"},{\"id\":3906,\"name\":\"Pranay Sharma\",\"email\":\"sharma_pranay@crooks-kris.biz\",\"gender\":\"male\",\"status\":\"active\"},{\"id\":3905,\"name\":\"Charvi Nayar\",\"email\":\"charvi_nayar@kunde.co\",\"gender\":\"male\",\"status\":\"active\"},{\"id\":3902,\"name\":\"Trilochana Embranthiri\",\"email\":\"embranthiri_trilochana@nicolas.name\",\"gender\":\"male\",\"status\":\"active\"},{\"id\":3900,\"name\":\"Gemini Nambeesan\",\"email\":\"nambeesan_gemini@welch-torp.co\",\"gender\":\"male\",\"status\":\"active\"},{\"id\":3896,\"name\":\"Abani Rana\",\"email\":\"rana_abani@boyer-parisian.com\",\"gender\":\"male\",\"status\":\"active\"},{\"id\":3892,\"name\":\"Aryan Desai\",\"email\":\"aryan_desai@nicolas.org\",\"gender\":\"male\",\"status\":\"active\"}]}\n\n"},{"result":{"nanos":11000,"millis":0.011,"status":"passed"},"step":{"line":9,"prefix":"Then","index":4,"text":"status 200"}},{"result":{"nanos":2903700,"millis":2.9037,"status":"passed"},"step":{"line":10,"prefix":"*","index":5,"text":"print response"},"stepLog":"14:11:17.891 [print] {\n  \"meta\": {\n    \"pagination\": {\n      \"total\": 1002,\n      \"pages\": 101,\n      \"page\": 1,\n      \"limit\": 10,\n      \"links\": {\n        \"previous\": null,\n        \"current\": \"https:\/\/gorest.co.in\/public\/v1\/users?page=1\",\n        \"next\": \"https:\/\/gorest.co.in\/public\/v1\/users?page=2\"\n      }\n    }\n  },\n  \"data\": [\n    {\n      \"id\": 3919,\n      \"name\": \"Bhudeva Khan\",\n      \"email\": \"bhudeva_khan@goldner.net\",\n      \"gender\": \"male\",\n      \"status\": \"active\"\n    },\n    {\n      \"id\": 3918,\n      \"name\": \"Tanya Dubashi V\",\n      \"email\": \"v_tanya_dubashi@kihn-nolan.org\",\n      \"gender\": \"male\",\n      \"status\": \"active\"\n    },\n    {\n      \"id\": 3911,\n      \"name\": \"Mr. Soma Chaturvedi\",\n      \"email\": \"mr_soma_chaturvedi@wilderman.name\",\n      \"gender\": \"male\",\n      \"status\": \"active\"\n    },\n    {\n      \"id\": 3909,\n      \"name\": \"Kannan Iyer\",\n      \"email\": \"iyer_kannan@schmeler.net\",\n      \"gender\": \"male\",\n      \"status\": \"active\"\n    },\n    {\n      \"id\": 3906,\n      \"name\": \"Pranay Sharma\",\n      \"email\": \"sharma_pranay@crooks-kris.biz\",\n      \"gender\": \"male\",\n      \"status\": \"active\"\n    },\n    {\n      \"id\": 3905,\n      \"name\": \"Charvi Nayar\",\n      \"email\": \"charvi_nayar@kunde.co\",\n      \"gender\": \"male\",\n      \"status\": \"active\"\n    },\n    {\n      \"id\": 3902,\n      \"name\": \"Trilochana Embranthiri\",\n      \"email\": \"embranthiri_trilochana@nicolas.name\",\n      \"gender\": \"male\",\n      \"status\": \"active\"\n    },\n    {\n      \"id\": 3900,\n      \"name\": \"Gemini Nambeesan\",\n      \"email\": \"nambeesan_gemini@welch-torp.co\",\n      \"gender\": \"male\",\n      \"status\": \"active\"\n    },\n    {\n      \"id\": 3896,\n      \"name\": \"Abani Rana\",\n      \"email\": \"rana_abani@boyer-parisian.com\",\n      \"gender\": \"male\",\n      \"status\": \"active\"\n    },\n    {\n      \"id\": 3892,\n      \"name\": \"Aryan Desai\",\n      \"email\": \"aryan_desai@nicolas.org\",\n      \"gender\": \"male\",\n      \"status\": \"active\"\n    }\n  ]\n}\n \n"},{"result":{"nanos":427100,"millis":0.4271,"status":"passed"},"step":{"line":11,"prefix":"*","index":6,"text":"def temp = response"}},{"result":{"nanos":24646901,"millis":24.646901,"status":"passed"},"step":{"line":12,"prefix":"*","index":7,"text":"print temp.id"},"stepLog":"14:11:17.924 [print] null \n"},{"result":{"nanos":1562000,"millis":1.562,"status":"passed"},"step":{"line":13,"prefix":"*","index":8,"text":"def count = temp.data.length"}},{"result":{"nanos":14971100,"millis":14.9711,"status":"passed"},"step":{"line":14,"prefix":"*","index":9,"text":"print count"},"stepLog":"14:11:17.939 [print] 10 \n"}],"executorName":"pool-1-thread-3","line":3,"name":"Get Details using get method","description":"","durationMillis":2596.738403,"startTime":1657528875302,"failed":false,"refId":"[1:3]","endTime":1657528877939,"exampleIndex":-1}],"callDepth":0,"name":"get Method Json Example","description":"","resultDate":"2022-07-11 02:11:20 PM","durationMillis":2596.738403,"passedCount":1}