[{"line":1,"elements":[{"start_timestamp":"2022-07-10T07:13:34.111Z","line":3,"name":"Get Details using get method","description":"","id":"get-details-using-get-method","type":"scenario","keyword":"Scenario","steps":[{"name":"def query = {status : 'active' , gender : 'male' }","result":{"duration":777014000,"status":"passed"},"match":{"location":"karate","arguments":[]},"keyword":"*","line":5},{"name":"url 'https:\/\/gorest.co.in\/public\/v1\/users\/'","result":{"duration":779500,"status":"passed"},"match":{"location":"karate","arguments":[]},"keyword":"Given","line":6},{"name":"params query","result":{"duration":1026312800,"status":"passed"},"match":{"location":"karate","arguments":[]},"keyword":"And","line":7},{"name":"method GET","result":{"duration":9031027300,"status":"passed"},"match":{"location":"karate","arguments":[]},"keyword":"When","line":8,"doc_string":{"content_type":"","value":"12:43:41.924 request:\n1 > GET https:\/\/gorest.co.in\/public\/v1\/users\/?gender=male&status=active\n1 > Host: gorest.co.in\n1 > Connection: Keep-Alive\n1 > User-Agent: Apache-HttpClient\/4.5.12 (Java\/1.8.0_311)\n1 > Accept-Encoding: gzip,deflate\n\n\n12:43:44.966 response time in milliseconds: 3028\n1 < 200\n1 < Date: Sun, 10 Jul 2022 07:13:43 GMT\n1 < Content-Type: application\/json; charset=utf-8\n1 < Transfer-Encoding: chunked\n1 < Connection: keep-alive\n1 < Vary: Accept-Encoding\n1 < Vary: Origin\n1 < X-Frame-Options: SAMEORIGIN\n1 < X-XSS-Protection: 0\n1 < X-Content-Type-Options: nosniff\n1 < X-Download-Options: noopen\n1 < X-Permitted-Cross-Domain-Policies: none\n1 < Referrer-Policy: strict-origin-when-cross-origin\n1 < ETag: W\/\"bb878c01265318371eec7aafcd23423b\"\n1 < Cache-Control: max-age=0, private, must-revalidate\n1 < X-Request-Id: 36a59ab1-4e4f-48e8-b3e0-9eb5c060bc8e\n1 < X-Runtime: 0.008081\n1 < Strict-Transport-Security: max-age=63072000; includeSubDomains\n1 < CF-Cache-Status: DYNAMIC\n1 < Expect-CT: max-age=604800, report-uri=\"https:\/\/report-uri.cloudflare.com\/cdn-cgi\/beacon\/expect-ct\"\n1 < Report-To: {\"endpoints\":[{\"url\":\"https:\\\/\\\/a.nel.cloudflare.com\\\/report\\\/v3?s=b4CUVozz2FFLbmqdzao2KL%2Fr%2Bku%2B8jU5pF3eHp1yyZhoX%2FpobuF3T5iWUrvnL1O%2FixMsEFv%2FrHRpZVa8keSHMN1w%2BLOGzoT5GYtlv2zJro3RTstvmTVdfllBIMZBgJE%3D\"}],\"group\":\"cf-nel\",\"max_age\":604800}\n1 < NEL: {\"success_fraction\":0,\"report_to\":\"cf-nel\",\"max_age\":604800}\n1 < Server: cloudflare\n1 < CF-RAY: 72877f94697b94b8-CCU\n1 < alt-svc: h3=\":443\"; ma=86400, h3-29=\":443\"; ma=86400\n{\"meta\":{\"pagination\":{\"total\":1008,\"pages\":101,\"page\":1,\"limit\":10,\"links\":{\"previous\":null,\"current\":\"https:\/\/gorest.co.in\/public\/v1\/users?page=1\",\"next\":\"https:\/\/gorest.co.in\/public\/v1\/users?page=2\"}}},\"data\":[{\"id\":4123,\"name\":\"Anil Sharma\",\"email\":\"sharma_anil@mills.com\",\"gender\":\"male\",\"status\":\"active\"},{\"id\":4121,\"name\":\"Bhilangana Dubashi\",\"email\":\"dubashi_bhilangana@feil.org\",\"gender\":\"male\",\"status\":\"active\"},{\"id\":4117,\"name\":\"Umang Ahuja\",\"email\":\"umang_ahuja@jacobs.io\",\"gender\":\"male\",\"status\":\"active\"},{\"id\":4107,\"name\":\"Dr. Suresh Dhawan\",\"email\":\"dhawan_suresh_dr@osinski-hegmann.io\",\"gender\":\"male\",\"status\":\"active\"},{\"id\":4106,\"name\":\"Shivakari Shukla\",\"email\":\"shivakari_shukla@oberbrunner.co\",\"gender\":\"male\",\"status\":\"active\"},{\"id\":4101,\"name\":\"Aarya Dutta\",\"email\":\"aarya_dutta@haag.io\",\"gender\":\"male\",\"status\":\"active\"},{\"id\":4097,\"name\":\"Trilok Embranthiri\",\"email\":\"embranthiri_trilok@rippin-mraz.co\",\"gender\":\"male\",\"status\":\"active\"},{\"id\":4092,\"name\":\"Trilokanath Sethi II\",\"email\":\"ii_sethi_trilokanath@oberbrunner.co\",\"gender\":\"male\",\"status\":\"active\"},{\"id\":4086,\"name\":\"The Hon. Guru Jain\",\"email\":\"the_jain_hon_guru@feest.net\",\"gender\":\"male\",\"status\":\"active\"},{\"id\":4083,\"name\":\"Chandni Mukhopadhyay\",\"email\":\"chandni_mukhopadhyay@fritsch.net\",\"gender\":\"male\",\"status\":\"active\"}]}\n\n","line":8}},{"name":"status 200","result":{"duration":14700,"status":"passed"},"match":{"location":"karate","arguments":[]},"keyword":"Then","line":9},{"name":"print response","result":{"duration":11790100,"status":"passed"},"match":{"location":"karate","arguments":[]},"keyword":"*","line":10,"doc_string":{"content_type":"","value":"12:43:45.013 [print] {\n  \"meta\": {\n    \"pagination\": {\n      \"total\": 1008,\n      \"pages\": 101,\n      \"page\": 1,\n      \"limit\": 10,\n      \"links\": {\n        \"previous\": null,\n        \"current\": \"https:\/\/gorest.co.in\/public\/v1\/users?page=1\",\n        \"next\": \"https:\/\/gorest.co.in\/public\/v1\/users?page=2\"\n      }\n    }\n  },\n  \"data\": [\n    {\n      \"id\": 4123,\n      \"name\": \"Anil Sharma\",\n      \"email\": \"sharma_anil@mills.com\",\n      \"gender\": \"male\",\n      \"status\": \"active\"\n    },\n    {\n      \"id\": 4121,\n      \"name\": \"Bhilangana Dubashi\",\n      \"email\": \"dubashi_bhilangana@feil.org\",\n      \"gender\": \"male\",\n      \"status\": \"active\"\n    },\n    {\n      \"id\": 4117,\n      \"name\": \"Umang Ahuja\",\n      \"email\": \"umang_ahuja@jacobs.io\",\n      \"gender\": \"male\",\n      \"status\": \"active\"\n    },\n    {\n      \"id\": 4107,\n      \"name\": \"Dr. Suresh Dhawan\",\n      \"email\": \"dhawan_suresh_dr@osinski-hegmann.io\",\n      \"gender\": \"male\",\n      \"status\": \"active\"\n    },\n    {\n      \"id\": 4106,\n      \"name\": \"Shivakari Shukla\",\n      \"email\": \"shivakari_shukla@oberbrunner.co\",\n      \"gender\": \"male\",\n      \"status\": \"active\"\n    },\n    {\n      \"id\": 4101,\n      \"name\": \"Aarya Dutta\",\n      \"email\": \"aarya_dutta@haag.io\",\n      \"gender\": \"male\",\n      \"status\": \"active\"\n    },\n    {\n      \"id\": 4097,\n      \"name\": \"Trilok Embranthiri\",\n      \"email\": \"embranthiri_trilok@rippin-mraz.co\",\n      \"gender\": \"male\",\n      \"status\": \"active\"\n    },\n    {\n      \"id\": 4092,\n      \"name\": \"Trilokanath Sethi II\",\n      \"email\": \"ii_sethi_trilokanath@oberbrunner.co\",\n      \"gender\": \"male\",\n      \"status\": \"active\"\n    },\n    {\n      \"id\": 4086,\n      \"name\": \"The Hon. Guru Jain\",\n      \"email\": \"the_jain_hon_guru@feest.net\",\n      \"gender\": \"male\",\n      \"status\": \"active\"\n    },\n    {\n      \"id\": 4083,\n      \"name\": \"Chandni Mukhopadhyay\",\n      \"email\": \"chandni_mukhopadhyay@fritsch.net\",\n      \"gender\": \"male\",\n      \"status\": \"active\"\n    }\n  ]\n}\n \n","line":10}},{"name":"def temp = response","result":{"duration":483700,"status":"passed"},"match":{"location":"karate","arguments":[]},"keyword":"*","line":11},{"name":"print temp.id","result":{"duration":27217100,"status":"passed"},"match":{"location":"karate","arguments":[]},"keyword":"*","line":12,"doc_string":{"content_type":"","value":"12:43:45.042 [print] null \n","line":12}},{"name":"def count = temp.data.length","result":{"duration":35160200,"status":"passed"},"match":{"location":"karate","arguments":[]},"keyword":"*","line":13},{"name":"print count","result":{"duration":2795000,"status":"passed"},"match":{"location":"karate","arguments":[]},"keyword":"*","line":14,"doc_string":{"content_type":"","value":"12:43:45.092 [print] 10 \n","line":14}}],"tags":[]}],"name":"Features\/getwithquery.feature","description":"get Method Json Example","id":"get-method-json-example","keyword":"Feature","uri":"Features\/getwithquery.feature"}]