[{"line":1,"elements":[{"start_timestamp":"2022-07-20T15:13:57.502Z","line":3,"name":"Get Details using get method","description":"","id":"get-details-using-get-method","type":"scenario","keyword":"Scenario","steps":[{"name":"def query = {status : 'active' , gender : 'male' }","result":{"duration":469101,"status":"passed"},"match":{"location":"karate","arguments":[]},"keyword":"*","line":5},{"name":"url 'https:\/\/gorest.co.in\/public\/v1\/users\/'","result":{"duration":810300,"status":"passed"},"match":{"location":"karate","arguments":[]},"keyword":"Given","line":6},{"name":"params query","result":{"duration":294099,"status":"passed"},"match":{"location":"karate","arguments":[]},"keyword":"And","line":7},{"name":"method GET","result":{"duration":425736499,"status":"passed"},"match":{"location":"karate","arguments":[]},"keyword":"When","line":8,"doc_string":{"content_type":"","value":"20:43:57.505 request:\n1 > GET https:\/\/gorest.co.in\/public\/v1\/users\/?gender=male&status=active\n1 > Host: gorest.co.in\n1 > Connection: Keep-Alive\n1 > User-Agent: Apache-HttpClient\/4.5.12 (Java\/1.8.0_311)\n1 > Accept-Encoding: gzip,deflate\n\n\n20:43:57.928 response time in milliseconds: 408\n1 < 200\n1 < Date: Wed, 20 Jul 2022 15:13:57 GMT\n1 < Content-Type: application\/json; charset=utf-8\n1 < Transfer-Encoding: chunked\n1 < Connection: keep-alive\n1 < Vary: Accept-Encoding\n1 < Vary: Origin\n1 < X-Frame-Options: SAMEORIGIN\n1 < X-XSS-Protection: 0\n1 < X-Content-Type-Options: nosniff\n1 < X-Download-Options: noopen\n1 < X-Permitted-Cross-Domain-Policies: none\n1 < Referrer-Policy: strict-origin-when-cross-origin\n1 < ETag: W\/\"a6d930fe4006ef651a887389937241ba\"\n1 < Cache-Control: max-age=0, private, must-revalidate\n1 < X-Request-Id: a1ea2bad-7090-44a6-9201-0906dcf54505\n1 < X-Runtime: 0.006520\n1 < Strict-Transport-Security: max-age=63072000; includeSubDomains\n1 < CF-Cache-Status: DYNAMIC\n1 < Expect-CT: max-age=604800, report-uri=\"https:\/\/report-uri.cloudflare.com\/cdn-cgi\/beacon\/expect-ct\"\n1 < Report-To: {\"endpoints\":[{\"url\":\"https:\\\/\\\/a.nel.cloudflare.com\\\/report\\\/v3?s=oKk3Rp%2BJPET1Pf%2BC0WoBqRzwSJjs1xl8Obpc6m2zbTEQwDOvoC3wpBuEgvGpu1XJjzlHpr3pUOz3LnumswDLh8XpvaCLeStCvAmPZcHRINTNParoraS5dwzfZZZMhGw%3D\"}],\"group\":\"cf-nel\",\"max_age\":604800}\n1 < NEL: {\"success_fraction\":0,\"report_to\":\"cf-nel\",\"max_age\":604800}\n1 < Server: cloudflare\n1 < CF-RAY: 72dca4cc1d7fa3ee-SIN\n1 < alt-svc: h3=\":443\"; ma=86400, h3-29=\":443\"; ma=86400\n{\"meta\":{\"pagination\":{\"total\":507,\"pages\":51,\"page\":1,\"limit\":10,\"links\":{\"previous\":null,\"current\":\"https:\/\/gorest.co.in\/public\/v1\/users?page=1\",\"next\":\"https:\/\/gorest.co.in\/public\/v1\/users?page=2\"}}},\"data\":[{\"id\":2265,\"name\":\"Gov. Swami Mukhopadhyay\",\"email\":\"mukhopadhyay_swami_gov@bernier.biz\",\"gender\":\"male\",\"status\":\"active\"},{\"id\":2263,\"name\":\"Mr. Anish Nambeesan\",\"email\":\"anish_nambeesan_mr@thompson-thiel.info\",\"gender\":\"male\",\"status\":\"active\"},{\"id\":2260,\"name\":\"Anuraag Butt\",\"email\":\"butt_anuraag@jaskolski.net\",\"gender\":\"male\",\"status\":\"active\"},{\"id\":2255,\"name\":\"Damayanti Bandopadhyay\",\"email\":\"bandopadhyay_damayanti@leffler-green.biz\",\"gender\":\"male\",\"status\":\"active\"},{\"id\":2246,\"name\":\"Vimala Mukhopadhyay\",\"email\":\"vimala_mukhopadhyay@roob.biz\",\"gender\":\"male\",\"status\":\"active\"},{\"id\":2232,\"name\":\"Miss Dinesh Bandopadhyay\",\"email\":\"miss_dinesh_bandopadhyay@daugherty-brekke.com\",\"gender\":\"male\",\"status\":\"active\"},{\"id\":2223,\"name\":\"Hiranmay Mishra PhD\",\"email\":\"hiranmay_mishra_phd@olson.io\",\"gender\":\"male\",\"status\":\"active\"},{\"id\":2218,\"name\":\"Anilaabh Pillai\",\"email\":\"pillai_anilaabh@roberts-krajcik.io\",\"gender\":\"male\",\"status\":\"active\"},{\"id\":2217,\"name\":\"Dr. Chaaruchandra Naik\",\"email\":\"chaaruchandra_dr_naik@feeney.biz\",\"gender\":\"male\",\"status\":\"active\"},{\"id\":2216,\"name\":\"Meena Menon II\",\"email\":\"meena_menon_ii@rau.org\",\"gender\":\"male\",\"status\":\"active\"}]}\n\n","line":8}},{"name":"status 200","result":{"duration":16001,"status":"passed"},"match":{"location":"karate","arguments":[]},"keyword":"Then","line":9},{"name":"print response","result":{"duration":2255300,"status":"passed"},"match":{"location":"karate","arguments":[]},"keyword":"*","line":10,"doc_string":{"content_type":"","value":"20:43:57.932 [print] {\n  \"meta\": {\n    \"pagination\": {\n      \"total\": 507,\n      \"pages\": 51,\n      \"page\": 1,\n      \"limit\": 10,\n      \"links\": {\n        \"previous\": null,\n        \"current\": \"https:\/\/gorest.co.in\/public\/v1\/users?page=1\",\n        \"next\": \"https:\/\/gorest.co.in\/public\/v1\/users?page=2\"\n      }\n    }\n  },\n  \"data\": [\n    {\n      \"id\": 2265,\n      \"name\": \"Gov. Swami Mukhopadhyay\",\n      \"email\": \"mukhopadhyay_swami_gov@bernier.biz\",\n      \"gender\": \"male\",\n      \"status\": \"active\"\n    },\n    {\n      \"id\": 2263,\n      \"name\": \"Mr. Anish Nambeesan\",\n      \"email\": \"anish_nambeesan_mr@thompson-thiel.info\",\n      \"gender\": \"male\",\n      \"status\": \"active\"\n    },\n    {\n      \"id\": 2260,\n      \"name\": \"Anuraag Butt\",\n      \"email\": \"butt_anuraag@jaskolski.net\",\n      \"gender\": \"male\",\n      \"status\": \"active\"\n    },\n    {\n      \"id\": 2255,\n      \"name\": \"Damayanti Bandopadhyay\",\n      \"email\": \"bandopadhyay_damayanti@leffler-green.biz\",\n      \"gender\": \"male\",\n      \"status\": \"active\"\n    },\n    {\n      \"id\": 2246,\n      \"name\": \"Vimala Mukhopadhyay\",\n      \"email\": \"vimala_mukhopadhyay@roob.biz\",\n      \"gender\": \"male\",\n      \"status\": \"active\"\n    },\n    {\n      \"id\": 2232,\n      \"name\": \"Miss Dinesh Bandopadhyay\",\n      \"email\": \"miss_dinesh_bandopadhyay@daugherty-brekke.com\",\n      \"gender\": \"male\",\n      \"status\": \"active\"\n    },\n    {\n      \"id\": 2223,\n      \"name\": \"Hiranmay Mishra PhD\",\n      \"email\": \"hiranmay_mishra_phd@olson.io\",\n      \"gender\": \"male\",\n      \"status\": \"active\"\n    },\n    {\n      \"id\": 2218,\n      \"name\": \"Anilaabh Pillai\",\n      \"email\": \"pillai_anilaabh@roberts-krajcik.io\",\n      \"gender\": \"male\",\n      \"status\": \"active\"\n    },\n    {\n      \"id\": 2217,\n      \"name\": \"Dr. Chaaruchandra Naik\",\n      \"email\": \"chaaruchandra_dr_naik@feeney.biz\",\n      \"gender\": \"male\",\n      \"status\": \"active\"\n    },\n    {\n      \"id\": 2216,\n      \"name\": \"Meena Menon II\",\n      \"email\": \"meena_menon_ii@rau.org\",\n      \"gender\": \"male\",\n      \"status\": \"active\"\n    }\n  ]\n}\n \n","line":10}},{"name":"def temp = response","result":{"duration":340000,"status":"passed"},"match":{"location":"karate","arguments":[]},"keyword":"*","line":11},{"name":"print temp.id","result":{"duration":1608899,"status":"passed"},"match":{"location":"karate","arguments":[]},"keyword":"*","line":12,"doc_string":{"content_type":"","value":"20:43:57.934 [print] null \n","line":12}},{"name":"def count = temp.data.length","result":{"duration":1278699,"status":"passed"},"match":{"location":"karate","arguments":[]},"keyword":"*","line":13},{"name":"print count","result":{"duration":1473600,"status":"passed"},"match":{"location":"karate","arguments":[]},"keyword":"*","line":14,"doc_string":{"content_type":"","value":"20:43:57.935 [print] 10 \n","line":14}}],"tags":[{"name":"@SmokeTest","line":2},{"name":"@RegressionTest","line":2}]}],"name":"Features\/getwithquery.feature","description":"get Method Json Example","id":"get-method-json-example","keyword":"Feature","uri":"Features\/getwithquery.feature"}]