[{"line":1,"elements":[{"start_timestamp":"2022-07-17T06:37:26.254Z","line":3,"name":"Get Details using get method","description":"","id":"get-details-using-get-method","type":"scenario","keyword":"Scenario","steps":[{"name":"def query = {status : 'active' , gender : 'male' }","result":{"duration":1704400,"status":"passed"},"match":{"location":"karate","arguments":[]},"keyword":"*","line":5},{"name":"url 'https:\/\/gorest.co.in\/public\/v1\/users\/'","result":{"duration":601700,"status":"passed"},"match":{"location":"karate","arguments":[]},"keyword":"Given","line":6},{"name":"params query","result":{"duration":3168500,"status":"passed"},"match":{"location":"karate","arguments":[]},"keyword":"And","line":7},{"name":"method GET","result":{"duration":240281300,"status":"passed"},"match":{"location":"karate","arguments":[]},"keyword":"When","line":8,"doc_string":{"content_type":"","value":"12:07:26.264 request:\n1 > GET https:\/\/gorest.co.in\/public\/v1\/users\/?gender=male&status=active\n1 > Host: gorest.co.in\n1 > Connection: Keep-Alive\n1 > User-Agent: Apache-HttpClient\/4.5.12 (Java\/16.0.1)\n1 > Accept-Encoding: gzip,deflate\n\n\n12:07:26.498 response time in milliseconds: 234\n1 < 200\n1 < Date: Sun, 17 Jul 2022 06:37:26 GMT\n1 < Content-Type: application\/json; charset=utf-8\n1 < Transfer-Encoding: chunked\n1 < Connection: keep-alive\n1 < Vary: Accept-Encoding\n1 < Vary: Origin\n1 < X-Frame-Options: SAMEORIGIN\n1 < X-XSS-Protection: 0\n1 < X-Content-Type-Options: nosniff\n1 < X-Download-Options: noopen\n1 < X-Permitted-Cross-Domain-Policies: none\n1 < Referrer-Policy: strict-origin-when-cross-origin\n1 < ETag: W\/\"d2d8c988f0c56ae001193ce9d7dd9da4\"\n1 < Cache-Control: max-age=0, private, must-revalidate\n1 < X-Request-Id: dd102241-97bb-4110-9432-d810e84c75b0\n1 < X-Runtime: 0.007015\n1 < Strict-Transport-Security: max-age=63072000; includeSubDomains\n1 < CF-Cache-Status: DYNAMIC\n1 < Expect-CT: max-age=604800, report-uri=\"https:\/\/report-uri.cloudflare.com\/cdn-cgi\/beacon\/expect-ct\"\n1 < Report-To: {\"endpoints\":[{\"url\":\"https:\\\/\\\/a.nel.cloudflare.com\\\/report\\\/v3?s=vxwLnQTXDC%2FpF%2BhTbLkdMc4amRvCa573ezSUT5YmLFjlH6zWCpeiipcqZc4PtUoAyWcqQsjryiHXdGUEvMiU838aoprlJX2R7TICSY28NPwbVh92sJeEt03hMKkiuVs%3D\"}],\"group\":\"cf-nel\",\"max_age\":604800}\n1 < NEL: {\"success_fraction\":0,\"report_to\":\"cf-nel\",\"max_age\":604800}\n1 < Server: cloudflare\n1 < CF-RAY: 72c0f8117ebd93cb-CCU\n1 < alt-svc: h3=\":443\"; ma=86400, h3-29=\":443\"; ma=86400\n{\"meta\":{\"pagination\":{\"total\":973,\"pages\":98,\"page\":1,\"limit\":10,\"links\":{\"previous\":null,\"current\":\"https:\/\/gorest.co.in\/public\/v1\/users?page=1\",\"next\":\"https:\/\/gorest.co.in\/public\/v1\/users?page=2\"}}},\"data\":[{\"id\":3853,\"name\":\"Daksha Patel MD\",\"email\":\"patel_daksha_md@ferry.com\",\"gender\":\"male\",\"status\":\"active\"},{\"id\":3852,\"name\":\"Tanushri Mehra\",\"email\":\"mehra_tanushri@corwin.biz\",\"gender\":\"male\",\"status\":\"active\"},{\"id\":3846,\"name\":\"Gauraang Acharya\",\"email\":\"gauraang_acharya@hand.name\",\"gender\":\"male\",\"status\":\"active\"},{\"id\":3845,\"name\":\"Dayaananda Bhattathiri\",\"email\":\"bhattathiri_dayaananda@bauch.info\",\"gender\":\"male\",\"status\":\"active\"},{\"id\":3841,\"name\":\"Subhash Agarwal\",\"email\":\"subhash_agarwal@towne.io\",\"gender\":\"male\",\"status\":\"active\"},{\"id\":3838,\"name\":\"Ms. Rupinder Gandhi\",\"email\":\"ms_gandhi_rupinder@borer-powlowski.net\",\"gender\":\"male\",\"status\":\"active\"},{\"id\":3833,\"name\":\"Bhuvaneshwar Khan II\",\"email\":\"bhuvaneshwar_khan_ii@kerluke.com\",\"gender\":\"male\",\"status\":\"active\"},{\"id\":3827,\"name\":\"Bakula Tandon VM\",\"email\":\"tandon_vm_bakula@hartmann-kunze.io\",\"gender\":\"male\",\"status\":\"active\"},{\"id\":3825,\"name\":\"Kashyap Pandey\",\"email\":\"pandey_kashyap@langosh-casper.com\",\"gender\":\"male\",\"status\":\"active\"},{\"id\":3824,\"name\":\"Amodini Deshpande\",\"email\":\"amodini_deshpande@schultz.org\",\"gender\":\"male\",\"status\":\"active\"}]}\n\n","line":8}},{"name":"status 200","result":{"duration":21600,"status":"passed"},"match":{"location":"karate","arguments":[]},"keyword":"Then","line":9},{"name":"print response","result":{"duration":2388300,"status":"passed"},"match":{"location":"karate","arguments":[]},"keyword":"*","line":10,"doc_string":{"content_type":"","value":"12:07:26.503 [print] {\n  \"meta\": {\n    \"pagination\": {\n      \"total\": 973,\n      \"pages\": 98,\n      \"page\": 1,\n      \"limit\": 10,\n      \"links\": {\n        \"previous\": null,\n        \"current\": \"https:\/\/gorest.co.in\/public\/v1\/users?page=1\",\n        \"next\": \"https:\/\/gorest.co.in\/public\/v1\/users?page=2\"\n      }\n    }\n  },\n  \"data\": [\n    {\n      \"id\": 3853,\n      \"name\": \"Daksha Patel MD\",\n      \"email\": \"patel_daksha_md@ferry.com\",\n      \"gender\": \"male\",\n      \"status\": \"active\"\n    },\n    {\n      \"id\": 3852,\n      \"name\": \"Tanushri Mehra\",\n      \"email\": \"mehra_tanushri@corwin.biz\",\n      \"gender\": \"male\",\n      \"status\": \"active\"\n    },\n    {\n      \"id\": 3846,\n      \"name\": \"Gauraang Acharya\",\n      \"email\": \"gauraang_acharya@hand.name\",\n      \"gender\": \"male\",\n      \"status\": \"active\"\n    },\n    {\n      \"id\": 3845,\n      \"name\": \"Dayaananda Bhattathiri\",\n      \"email\": \"bhattathiri_dayaananda@bauch.info\",\n      \"gender\": \"male\",\n      \"status\": \"active\"\n    },\n    {\n      \"id\": 3841,\n      \"name\": \"Subhash Agarwal\",\n      \"email\": \"subhash_agarwal@towne.io\",\n      \"gender\": \"male\",\n      \"status\": \"active\"\n    },\n    {\n      \"id\": 3838,\n      \"name\": \"Ms. Rupinder Gandhi\",\n      \"email\": \"ms_gandhi_rupinder@borer-powlowski.net\",\n      \"gender\": \"male\",\n      \"status\": \"active\"\n    },\n    {\n      \"id\": 3833,\n      \"name\": \"Bhuvaneshwar Khan II\",\n      \"email\": \"bhuvaneshwar_khan_ii@kerluke.com\",\n      \"gender\": \"male\",\n      \"status\": \"active\"\n    },\n    {\n      \"id\": 3827,\n      \"name\": \"Bakula Tandon VM\",\n      \"email\": \"tandon_vm_bakula@hartmann-kunze.io\",\n      \"gender\": \"male\",\n      \"status\": \"active\"\n    },\n    {\n      \"id\": 3825,\n      \"name\": \"Kashyap Pandey\",\n      \"email\": \"pandey_kashyap@langosh-casper.com\",\n      \"gender\": \"male\",\n      \"status\": \"active\"\n    },\n    {\n      \"id\": 3824,\n      \"name\": \"Amodini Deshpande\",\n      \"email\": \"amodini_deshpande@schultz.org\",\n      \"gender\": \"male\",\n      \"status\": \"active\"\n    }\n  ]\n}\n \n","line":10}},{"name":"def temp = response","result":{"duration":597900,"status":"passed"},"match":{"location":"karate","arguments":[]},"keyword":"*","line":11},{"name":"print temp.id","result":{"duration":2217400,"status":"passed"},"match":{"location":"karate","arguments":[]},"keyword":"*","line":12,"doc_string":{"content_type":"","value":"12:07:26.507 [print] null \n","line":12}},{"name":"def count = temp.data.length","result":{"duration":2307500,"status":"passed"},"match":{"location":"karate","arguments":[]},"keyword":"*","line":13},{"name":"print count","result":{"duration":1824400,"status":"passed"},"match":{"location":"karate","arguments":[]},"keyword":"*","line":14,"doc_string":{"content_type":"","value":"12:07:26.511 [print] 10 \n","line":14}}],"tags":[{"name":"@SmokeTest","line":2},{"name":"@RegressionTest","line":2}]}],"name":"Features\/getwithquery.feature","description":"get Method Json Example","id":"get-method-json-example","keyword":"Feature","uri":"Features\/getwithquery.feature"}]