{"failedCount":0,"prefixedPath":"classpath:Features\/getwithquery.feature","packageQualifiedName":"Features.getwithquery","loopIndex":-1,"relativePath":"Features\/getwithquery.feature","scenarioResults":[{"sectionIndex":0,"stepResults":[{"result":{"nanos":24810899,"millis":24.810899,"status":"passed"},"step":{"line":5,"prefix":"*","index":0,"text":"def query = {status : 'active' , gender : 'male' }"}},{"result":{"nanos":1245700,"millis":1.2457,"status":"passed"},"step":{"line":6,"prefix":"Given","index":1,"text":"url 'https:\/\/gorest.co.in\/public\/v1\/users\/'"}},{"result":{"nanos":1306399,"millis":1.306399,"status":"passed"},"step":{"line":7,"prefix":"And","index":2,"text":"params query"}},{"result":{"nanos":1237535399,"millis":1237.535399,"status":"passed"},"step":{"line":8,"prefix":"When","index":3,"text":"method GET"},"stepLog":"21:34:11.127 request:\n1 > GET https:\/\/gorest.co.in\/public\/v1\/users\/?gender=male&status=active\n1 > Host: gorest.co.in\n1 > Connection: Keep-Alive\n1 > User-Agent: Apache-HttpClient\/4.5.12 (Java\/1.8.0_311)\n1 > Accept-Encoding: gzip,deflate\n\n\n21:34:11.932 response time in milliseconds: 790\n1 < 200\n1 < Date: Wed, 20 Jul 2022 16:04:11 GMT\n1 < Content-Type: application\/json; charset=utf-8\n1 < Transfer-Encoding: chunked\n1 < Connection: keep-alive\n1 < Vary: Accept-Encoding\n1 < Vary: Origin\n1 < X-Frame-Options: SAMEORIGIN\n1 < X-XSS-Protection: 0\n1 < X-Content-Type-Options: nosniff\n1 < X-Download-Options: noopen\n1 < X-Permitted-Cross-Domain-Policies: none\n1 < Referrer-Policy: strict-origin-when-cross-origin\n1 < ETag: W\/\"b97005d50d3ddd00b5ae157be67fb50c\"\n1 < Cache-Control: max-age=0, private, must-revalidate\n1 < X-Request-Id: 17d76e32-7a94-4ff1-a055-155125da7898\n1 < X-Runtime: 0.007276\n1 < Strict-Transport-Security: max-age=63072000; includeSubDomains\n1 < CF-Cache-Status: DYNAMIC\n1 < Expect-CT: max-age=604800, report-uri=\"https:\/\/report-uri.cloudflare.com\/cdn-cgi\/beacon\/expect-ct\"\n1 < Report-To: {\"endpoints\":[{\"url\":\"https:\\\/\\\/a.nel.cloudflare.com\\\/report\\\/v3?s=lvK2JzbsmSRAcbkBNArizSEAajz4na%2F0GULzZ64Pp2%2FYUkOT0db2pYHg%2FjFcsHOXLiaXiWaMy%2BUQABBtAaNKwz2zFSsTuog90b8Fw1K7e1by5x1wPN35KW29yesgQrY%3D\"}],\"group\":\"cf-nel\",\"max_age\":604800}\n1 < NEL: {\"success_fraction\":0,\"report_to\":\"cf-nel\",\"max_age\":604800}\n1 < Server: cloudflare\n1 < CF-RAY: 72dcee5f89027a24-PAT\n1 < alt-svc: h3=\":443\"; ma=86400, h3-29=\":443\"; ma=86400\n{\"meta\":{\"pagination\":{\"total\":501,\"pages\":51,\"page\":1,\"limit\":10,\"links\":{\"previous\":null,\"current\":\"https:\/\/gorest.co.in\/public\/v1\/users?page=1\",\"next\":\"https:\/\/gorest.co.in\/public\/v1\/users?page=2\"}}},\"data\":[{\"id\":2232,\"name\":\"Miss Dinesh Bandopadhyay\",\"email\":\"miss_dinesh_bandopadhyay@daugherty-brekke.com\",\"gender\":\"male\",\"status\":\"active\"},{\"id\":2223,\"name\":\"Hiranmay Mishra PhD\",\"email\":\"hiranmay_mishra_phd@olson.io\",\"gender\":\"male\",\"status\":\"active\"},{\"id\":2218,\"name\":\"Anilaabh Pillai\",\"email\":\"pillai_anilaabh@roberts-krajcik.io\",\"gender\":\"male\",\"status\":\"active\"},{\"id\":2217,\"name\":\"Dr. Chaaruchandra Naik\",\"email\":\"chaaruchandra_dr_naik@feeney.biz\",\"gender\":\"male\",\"status\":\"active\"},{\"id\":2216,\"name\":\"Meena Menon II\",\"email\":\"meena_menon_ii@rau.org\",\"gender\":\"male\",\"status\":\"active\"},{\"id\":2213,\"name\":\"Harinakshi Bhattacharya\",\"email\":\"harinakshi_bhattacharya@vandervort-kessler.co\",\"gender\":\"male\",\"status\":\"active\"},{\"id\":2211,\"name\":\"Fr. Amodini Varma\",\"email\":\"varma_fr_amodini@prohaska-parker.co\",\"gender\":\"male\",\"status\":\"active\"},{\"id\":2209,\"name\":\"Jaimini Somayaji Sr.\",\"email\":\"somayaji_jaimini_sr@stroman.co\",\"gender\":\"male\",\"status\":\"active\"},{\"id\":2205,\"name\":\"Anurag Kaur\",\"email\":\"anurag_kaur@howell-boyer.net\",\"gender\":\"male\",\"status\":\"active\"},{\"id\":2202,\"name\":\"Diksha Kocchar\",\"email\":\"kocchar_diksha@williamson.biz\",\"gender\":\"male\",\"status\":\"active\"}]}\n\n"},{"result":{"nanos":31100,"millis":0.0311,"status":"passed"},"step":{"line":9,"prefix":"Then","index":4,"text":"status 200"}},{"result":{"nanos":24275601,"millis":24.275601,"status":"passed"},"step":{"line":10,"prefix":"*","index":5,"text":"print response"},"stepLog":"21:34:11.961 [print] {\n  \"meta\": {\n    \"pagination\": {\n      \"total\": 501,\n      \"pages\": 51,\n      \"page\": 1,\n      \"limit\": 10,\n      \"links\": {\n        \"previous\": null,\n        \"current\": \"https:\/\/gorest.co.in\/public\/v1\/users?page=1\",\n        \"next\": \"https:\/\/gorest.co.in\/public\/v1\/users?page=2\"\n      }\n    }\n  },\n  \"data\": [\n    {\n      \"id\": 2232,\n      \"name\": \"Miss Dinesh Bandopadhyay\",\n      \"email\": \"miss_dinesh_bandopadhyay@daugherty-brekke.com\",\n      \"gender\": \"male\",\n      \"status\": \"active\"\n    },\n    {\n      \"id\": 2223,\n      \"name\": \"Hiranmay Mishra PhD\",\n      \"email\": \"hiranmay_mishra_phd@olson.io\",\n      \"gender\": \"male\",\n      \"status\": \"active\"\n    },\n    {\n      \"id\": 2218,\n      \"name\": \"Anilaabh Pillai\",\n      \"email\": \"pillai_anilaabh@roberts-krajcik.io\",\n      \"gender\": \"male\",\n      \"status\": \"active\"\n    },\n    {\n      \"id\": 2217,\n      \"name\": \"Dr. Chaaruchandra Naik\",\n      \"email\": \"chaaruchandra_dr_naik@feeney.biz\",\n      \"gender\": \"male\",\n      \"status\": \"active\"\n    },\n    {\n      \"id\": 2216,\n      \"name\": \"Meena Menon II\",\n      \"email\": \"meena_menon_ii@rau.org\",\n      \"gender\": \"male\",\n      \"status\": \"active\"\n    },\n    {\n      \"id\": 2213,\n      \"name\": \"Harinakshi Bhattacharya\",\n      \"email\": \"harinakshi_bhattacharya@vandervort-kessler.co\",\n      \"gender\": \"male\",\n      \"status\": \"active\"\n    },\n    {\n      \"id\": 2211,\n      \"name\": \"Fr. Amodini Varma\",\n      \"email\": \"varma_fr_amodini@prohaska-parker.co\",\n      \"gender\": \"male\",\n      \"status\": \"active\"\n    },\n    {\n      \"id\": 2209,\n      \"name\": \"Jaimini Somayaji Sr.\",\n      \"email\": \"somayaji_jaimini_sr@stroman.co\",\n      \"gender\": \"male\",\n      \"status\": \"active\"\n    },\n    {\n      \"id\": 2205,\n      \"name\": \"Anurag Kaur\",\n      \"email\": \"anurag_kaur@howell-boyer.net\",\n      \"gender\": \"male\",\n      \"status\": \"active\"\n    },\n    {\n      \"id\": 2202,\n      \"name\": \"Diksha Kocchar\",\n      \"email\": \"kocchar_diksha@williamson.biz\",\n      \"gender\": \"male\",\n      \"status\": \"active\"\n    }\n  ]\n}\n \n"},{"result":{"nanos":1336500,"millis":1.3365,"status":"passed"},"step":{"line":11,"prefix":"*","index":6,"text":"def temp = response"}},{"result":{"nanos":5035600,"millis":5.0356,"status":"passed"},"step":{"line":12,"prefix":"*","index":7,"text":"print temp.id"},"stepLog":"21:34:11.968 [print] null \n"},{"result":{"nanos":1641100,"millis":1.6411,"status":"passed"},"step":{"line":13,"prefix":"*","index":8,"text":"def count = temp.data.length"}},{"result":{"nanos":1309900,"millis":1.3099,"status":"passed"},"step":{"line":14,"prefix":"*","index":9,"text":"print count"},"stepLog":"21:34:11.972 [print] 10 \n"}],"line":3,"description":"","durationMillis":1298.528198,"failed":false,"tags":["SmokeTest","RegressionTest"],"executorName":"main","name":"Get Details using get method","startTime":1658333050657,"refId":"[1:3]","endTime":1658333051972,"exampleIndex":-1}],"callDepth":0,"name":"get Method Json Example","description":"","resultDate":"2022-07-20 09:34:11 PM","durationMillis":1298.528198,"passedCount":1}