[{"line":1,"elements":[{"start_timestamp":"2022-07-08T13:29:26.622Z","line":3,"name":"Get Details using get method","description":"","id":"get-details-using-get-method","type":"scenario","keyword":"Scenario","steps":[{"name":"def query = {status : 'active' , gender : 'male' }","result":{"duration":121977000,"status":"passed"},"match":{"location":"karate","arguments":[]},"keyword":"*","line":5},{"name":"url 'https:\/\/gorest.co.in\/public\/v1\/users\/'","result":{"duration":98540500,"status":"passed"},"match":{"location":"karate","arguments":[]},"keyword":"Given","line":6},{"name":"params query","result":{"duration":42653600,"status":"passed"},"match":{"location":"karate","arguments":[]},"keyword":"And","line":7},{"name":"method GET","result":{"duration":1851354600,"status":"passed"},"match":{"location":"karate","arguments":[]},"keyword":"When","line":8,"doc_string":{"content_type":"","value":"18:59:27.597 request:\n1 > GET https:\/\/gorest.co.in\/public\/v1\/users\/?gender=male&status=active\n1 > Host: gorest.co.in\n1 > Connection: Keep-Alive\n1 > User-Agent: Apache-HttpClient\/4.5.12 (Java\/16.0.1)\n1 > Accept-Encoding: gzip,deflate\n\n\n18:59:28.763 response time in milliseconds: 1164\n1 < 200\n1 < Date: Fri, 08 Jul 2022 13:29:28 GMT\n1 < Content-Type: application\/json; charset=utf-8\n1 < Transfer-Encoding: chunked\n1 < Connection: keep-alive\n1 < Vary: Accept-Encoding\n1 < Vary: Origin\n1 < X-Frame-Options: SAMEORIGIN\n1 < X-XSS-Protection: 0\n1 < X-Content-Type-Options: nosniff\n1 < X-Download-Options: noopen\n1 < X-Permitted-Cross-Domain-Policies: none\n1 < Referrer-Policy: strict-origin-when-cross-origin\n1 < ETag: W\/\"d6e895984435244a0c489988a88f5bd9\"\n1 < Cache-Control: max-age=0, private, must-revalidate\n1 < X-Request-Id: b53c1b4c-fbca-455f-a33c-b60763d814d5\n1 < X-Runtime: 0.009518\n1 < Strict-Transport-Security: max-age=63072000; includeSubDomains\n1 < CF-Cache-Status: DYNAMIC\n1 < Expect-CT: max-age=604800, report-uri=\"https:\/\/report-uri.cloudflare.com\/cdn-cgi\/beacon\/expect-ct\"\n1 < Report-To: {\"endpoints\":[{\"url\":\"https:\\\/\\\/a.nel.cloudflare.com\\\/report\\\/v3?s=Jifpwy6hcVXqlxNDvM4bKNzJJlns9vKqikvPimtb%2FvmUo78%2BnGc8MWCwzabrNB%2BSE4rI1xmYYZ7pwduaqpmPvjudPFc2WuzWX%2Fnbo8lEv0NSsnyPatwrHYBhWy%2Bd3pk%3D\"}],\"group\":\"cf-nel\",\"max_age\":604800}\n1 < NEL: {\"success_fraction\":0,\"report_to\":\"cf-nel\",\"max_age\":604800}\n1 < Server: cloudflare\n1 < CF-RAY: 72792b3efbd293bb-CCU\n1 < alt-svc: h3=\":443\"; ma=86400, h3-29=\":443\"; ma=86400\n{\"meta\":{\"pagination\":{\"total\":641,\"pages\":65,\"page\":1,\"limit\":10,\"links\":{\"previous\":null,\"current\":\"https:\/\/gorest.co.in\/public\/v1\/users?page=1\",\"next\":\"https:\/\/gorest.co.in\/public\/v1\/users?page=2\"}}},\"data\":[{\"id\":2536,\"name\":\"Adityanandana Adiga\",\"email\":\"adiga_adityanandana@okon-wiza.org\",\"gender\":\"male\",\"status\":\"active\"},{\"id\":2530,\"name\":\"Purushottam Jha\",\"email\":\"purushottam_jha@streich-king.io\",\"gender\":\"male\",\"status\":\"active\"},{\"id\":2525,\"name\":\"Vyas Mishra\",\"email\":\"mishra_vyas@schaefer.org\",\"gender\":\"male\",\"status\":\"active\"},{\"id\":2518,\"name\":\"Miss Bandhu Tagore\",\"email\":\"tagore_miss_bandhu@fisher-shanahan.co\",\"gender\":\"male\",\"status\":\"active\"},{\"id\":2515,\"name\":\"The Hon. Bhaves Varma\",\"email\":\"bhaves_hon_the_varma@bernier.info\",\"gender\":\"male\",\"status\":\"active\"},{\"id\":2502,\"name\":\"Msgr. Chandrani Nayar\",\"email\":\"msgr_chandrani_nayar@kunze.org\",\"gender\":\"male\",\"status\":\"active\"},{\"id\":2500,\"name\":\"Harinarayan Mahajan\",\"email\":\"harinarayan_mahajan@paucek-doyle.net\",\"gender\":\"male\",\"status\":\"active\"},{\"id\":2496,\"name\":\"Devani Asan\",\"email\":\"asan_devani@spinka-damore.com\",\"gender\":\"male\",\"status\":\"active\"},{\"id\":2494,\"name\":\"Devesh Marar\",\"email\":\"devesh_marar@gulgowski-collins.name\",\"gender\":\"male\",\"status\":\"active\"},{\"id\":2492,\"name\":\"Divakar Shukla\",\"email\":\"divakar_shukla@pacocha.biz\",\"gender\":\"male\",\"status\":\"active\"}]}\n\n","line":8}},{"name":"status 200","result":{"duration":16500,"status":"passed"},"match":{"location":"karate","arguments":[]},"keyword":"Then","line":9},{"name":"print response","result":{"duration":3079800,"status":"passed"},"match":{"location":"karate","arguments":[]},"keyword":"*","line":10,"doc_string":{"content_type":"","value":"18:59:28.771 [print] {\n  \"meta\": {\n    \"pagination\": {\n      \"total\": 641,\n      \"pages\": 65,\n      \"page\": 1,\n      \"limit\": 10,\n      \"links\": {\n        \"previous\": null,\n        \"current\": \"https:\/\/gorest.co.in\/public\/v1\/users?page=1\",\n        \"next\": \"https:\/\/gorest.co.in\/public\/v1\/users?page=2\"\n      }\n    }\n  },\n  \"data\": [\n    {\n      \"id\": 2536,\n      \"name\": \"Adityanandana Adiga\",\n      \"email\": \"adiga_adityanandana@okon-wiza.org\",\n      \"gender\": \"male\",\n      \"status\": \"active\"\n    },\n    {\n      \"id\": 2530,\n      \"name\": \"Purushottam Jha\",\n      \"email\": \"purushottam_jha@streich-king.io\",\n      \"gender\": \"male\",\n      \"status\": \"active\"\n    },\n    {\n      \"id\": 2525,\n      \"name\": \"Vyas Mishra\",\n      \"email\": \"mishra_vyas@schaefer.org\",\n      \"gender\": \"male\",\n      \"status\": \"active\"\n    },\n    {\n      \"id\": 2518,\n      \"name\": \"Miss Bandhu Tagore\",\n      \"email\": \"tagore_miss_bandhu@fisher-shanahan.co\",\n      \"gender\": \"male\",\n      \"status\": \"active\"\n    },\n    {\n      \"id\": 2515,\n      \"name\": \"The Hon. Bhaves Varma\",\n      \"email\": \"bhaves_hon_the_varma@bernier.info\",\n      \"gender\": \"male\",\n      \"status\": \"active\"\n    },\n    {\n      \"id\": 2502,\n      \"name\": \"Msgr. Chandrani Nayar\",\n      \"email\": \"msgr_chandrani_nayar@kunze.org\",\n      \"gender\": \"male\",\n      \"status\": \"active\"\n    },\n    {\n      \"id\": 2500,\n      \"name\": \"Harinarayan Mahajan\",\n      \"email\": \"harinarayan_mahajan@paucek-doyle.net\",\n      \"gender\": \"male\",\n      \"status\": \"active\"\n    },\n    {\n      \"id\": 2496,\n      \"name\": \"Devani Asan\",\n      \"email\": \"asan_devani@spinka-damore.com\",\n      \"gender\": \"male\",\n      \"status\": \"active\"\n    },\n    {\n      \"id\": 2494,\n      \"name\": \"Devesh Marar\",\n      \"email\": \"devesh_marar@gulgowski-collins.name\",\n      \"gender\": \"male\",\n      \"status\": \"active\"\n    },\n    {\n      \"id\": 2492,\n      \"name\": \"Divakar Shukla\",\n      \"email\": \"divakar_shukla@pacocha.biz\",\n      \"gender\": \"male\",\n      \"status\": \"active\"\n    }\n  ]\n}\n \n","line":10}},{"name":"def temp = response","result":{"duration":569300,"status":"passed"},"match":{"location":"karate","arguments":[]},"keyword":"*","line":11},{"name":"print temp.id","result":{"duration":8190300,"status":"passed"},"match":{"location":"karate","arguments":[]},"keyword":"*","line":12,"doc_string":{"content_type":"","value":"18:59:28.781 [print] null \n","line":12}},{"name":"def count = temp.data.length","result":{"duration":1286200,"status":"passed"},"match":{"location":"karate","arguments":[]},"keyword":"*","line":13},{"name":"print count","result":{"duration":1617200,"status":"passed"},"match":{"location":"karate","arguments":[]},"keyword":"*","line":14,"doc_string":{"content_type":"","value":"18:59:28.784 [print] 10 \n","line":14}}],"tags":[]}],"name":"Features\/getwithquery.feature","description":"get Method Json Example","id":"get-method-json-example","keyword":"Feature","uri":"Features\/getwithquery.feature"}]