[{"line":1,"elements":[{"start_timestamp":"2022-07-15T14:47:21.371Z","line":3,"name":"Get Details using get method","description":"","id":"get-details-using-get-method","type":"scenario","keyword":"Scenario","steps":[{"name":"def query = {status : 'active' , gender : 'male' }","result":{"duration":362746100,"status":"passed"},"match":{"location":"karate","arguments":[]},"keyword":"*","line":5},{"name":"url 'https:\/\/gorest.co.in\/public\/v1\/users\/'","result":{"duration":8825700,"status":"passed"},"match":{"location":"karate","arguments":[]},"keyword":"Given","line":6},{"name":"params query","result":{"duration":45858800,"status":"passed"},"match":{"location":"karate","arguments":[]},"keyword":"And","line":7},{"name":"method GET","result":{"duration":888651200,"status":"passed"},"match":{"location":"karate","arguments":[]},"keyword":"When","line":8,"doc_string":{"content_type":"","value":"20:17:22.001 request:\n1 > GET https:\/\/gorest.co.in\/public\/v1\/users\/?gender=male&status=active\n1 > Host: gorest.co.in\n1 > Connection: Keep-Alive\n1 > User-Agent: Apache-HttpClient\/4.5.12 (Java\/16.0.1)\n1 > Accept-Encoding: gzip,deflate\n\n\n20:17:22.694 response time in milliseconds: 685\n1 < 200\n1 < Date: Fri, 15 Jul 2022 14:47:22 GMT\n1 < Content-Type: application\/json; charset=utf-8\n1 < Transfer-Encoding: chunked\n1 < Connection: keep-alive\n1 < Vary: Accept-Encoding\n1 < Vary: Origin\n1 < X-Frame-Options: SAMEORIGIN\n1 < X-XSS-Protection: 0\n1 < X-Content-Type-Options: nosniff\n1 < X-Download-Options: noopen\n1 < X-Permitted-Cross-Domain-Policies: none\n1 < Referrer-Policy: strict-origin-when-cross-origin\n1 < ETag: W\/\"66917509ebd29b76b2903a90d92c050a\"\n1 < Cache-Control: max-age=0, private, must-revalidate\n1 < X-Request-Id: 58196b00-a179-46bd-a5f6-117e5c784c84\n1 < X-Runtime: 0.006949\n1 < Strict-Transport-Security: max-age=63072000; includeSubDomains\n1 < CF-Cache-Status: DYNAMIC\n1 < Expect-CT: max-age=604800, report-uri=\"https:\/\/report-uri.cloudflare.com\/cdn-cgi\/beacon\/expect-ct\"\n1 < Report-To: {\"endpoints\":[{\"url\":\"https:\\\/\\\/a.nel.cloudflare.com\\\/report\\\/v3?s=gtqGrUAZgVWS%2BPIZOUazftpz5QujoSI9A56Yop6NekW2IT0Q6u9CcUkKxuKpD1gXvRVxkGkJrcU4HCh3iG4HZcUnjOEHfuFgZdOJAcfHxIvKMJHsvGXB8YNtVjsYFs0%3D\"}],\"group\":\"cf-nel\",\"max_age\":604800}\n1 < NEL: {\"success_fraction\":0,\"report_to\":\"cf-nel\",\"max_age\":604800}\n1 < Server: cloudflare\n1 < CF-RAY: 72b34afc082731be-BOM\n1 < alt-svc: h3=\":443\"; ma=86400, h3-29=\":443\"; ma=86400\n{\"meta\":{\"pagination\":{\"total\":791,\"pages\":80,\"page\":1,\"limit\":10,\"links\":{\"previous\":null,\"current\":\"https:\/\/gorest.co.in\/public\/v1\/users?page=1\",\"next\":\"https:\/\/gorest.co.in\/public\/v1\/users?page=2\"}}},\"data\":[{\"id\":3204,\"name\":\"Nagabhushanam Rana\",\"email\":\"nagabhushanam_rana@prohaska.net\",\"gender\":\"male\",\"status\":\"active\"},{\"id\":3199,\"name\":\"Amaresh Trivedi\",\"email\":\"trivedi_amaresh@stracke.io\",\"gender\":\"male\",\"status\":\"active\"},{\"id\":3198,\"name\":\"Miss Chaturaanan Kaul\",\"email\":\"chaturaanan_kaul_miss@von.name\",\"gender\":\"male\",\"status\":\"active\"},{\"id\":3179,\"name\":\"Pranay Shukla\",\"email\":\"pranay_shukla@oberbrunner-leannon.co\",\"gender\":\"male\",\"status\":\"active\"},{\"id\":3178,\"name\":\"Chandraprabha Guneta PhD\",\"email\":\"phd_chandraprabha_guneta@durgan.info\",\"gender\":\"male\",\"status\":\"active\"},{\"id\":3176,\"name\":\"Miss Geetanjali Gowda\",\"email\":\"miss_geetanjali_gowda@kutch.info\",\"gender\":\"male\",\"status\":\"active\"},{\"id\":3169,\"name\":\"Prof. Giriraj Patel\",\"email\":\"giriraj_prof_patel@zieme.info\",\"gender\":\"male\",\"status\":\"active\"},{\"id\":3168,\"name\":\"Ritesh Jha Jr.\",\"email\":\"jha_jr_ritesh@ernser-reynolds.io\",\"gender\":\"male\",\"status\":\"active\"},{\"id\":3166,\"name\":\"Baidehi Ahuja\",\"email\":\"baidehi_ahuja@frami.co\",\"gender\":\"male\",\"status\":\"active\"},{\"id\":3160,\"name\":\"Aanandaswarup Dubashi JD\",\"email\":\"aanandaswarup_jd_dubashi@roberts-cartwright.info\",\"gender\":\"male\",\"status\":\"active\"}]}\n\n","line":8}},{"name":"status 200","result":{"duration":31500,"status":"passed"},"match":{"location":"karate","arguments":[]},"keyword":"Then","line":9},{"name":"print response","result":{"duration":3820000,"status":"passed"},"match":{"location":"karate","arguments":[]},"keyword":"*","line":10,"doc_string":{"content_type":"","value":"20:17:22.701 [print] {\n  \"meta\": {\n    \"pagination\": {\n      \"total\": 791,\n      \"pages\": 80,\n      \"page\": 1,\n      \"limit\": 10,\n      \"links\": {\n        \"previous\": null,\n        \"current\": \"https:\/\/gorest.co.in\/public\/v1\/users?page=1\",\n        \"next\": \"https:\/\/gorest.co.in\/public\/v1\/users?page=2\"\n      }\n    }\n  },\n  \"data\": [\n    {\n      \"id\": 3204,\n      \"name\": \"Nagabhushanam Rana\",\n      \"email\": \"nagabhushanam_rana@prohaska.net\",\n      \"gender\": \"male\",\n      \"status\": \"active\"\n    },\n    {\n      \"id\": 3199,\n      \"name\": \"Amaresh Trivedi\",\n      \"email\": \"trivedi_amaresh@stracke.io\",\n      \"gender\": \"male\",\n      \"status\": \"active\"\n    },\n    {\n      \"id\": 3198,\n      \"name\": \"Miss Chaturaanan Kaul\",\n      \"email\": \"chaturaanan_kaul_miss@von.name\",\n      \"gender\": \"male\",\n      \"status\": \"active\"\n    },\n    {\n      \"id\": 3179,\n      \"name\": \"Pranay Shukla\",\n      \"email\": \"pranay_shukla@oberbrunner-leannon.co\",\n      \"gender\": \"male\",\n      \"status\": \"active\"\n    },\n    {\n      \"id\": 3178,\n      \"name\": \"Chandraprabha Guneta PhD\",\n      \"email\": \"phd_chandraprabha_guneta@durgan.info\",\n      \"gender\": \"male\",\n      \"status\": \"active\"\n    },\n    {\n      \"id\": 3176,\n      \"name\": \"Miss Geetanjali Gowda\",\n      \"email\": \"miss_geetanjali_gowda@kutch.info\",\n      \"gender\": \"male\",\n      \"status\": \"active\"\n    },\n    {\n      \"id\": 3169,\n      \"name\": \"Prof. Giriraj Patel\",\n      \"email\": \"giriraj_prof_patel@zieme.info\",\n      \"gender\": \"male\",\n      \"status\": \"active\"\n    },\n    {\n      \"id\": 3168,\n      \"name\": \"Ritesh Jha Jr.\",\n      \"email\": \"jha_jr_ritesh@ernser-reynolds.io\",\n      \"gender\": \"male\",\n      \"status\": \"active\"\n    },\n    {\n      \"id\": 3166,\n      \"name\": \"Baidehi Ahuja\",\n      \"email\": \"baidehi_ahuja@frami.co\",\n      \"gender\": \"male\",\n      \"status\": \"active\"\n    },\n    {\n      \"id\": 3160,\n      \"name\": \"Aanandaswarup Dubashi JD\",\n      \"email\": \"aanandaswarup_jd_dubashi@roberts-cartwright.info\",\n      \"gender\": \"male\",\n      \"status\": \"active\"\n    }\n  ]\n}\n \n","line":10}},{"name":"def temp = response","result":{"duration":684100,"status":"passed"},"match":{"location":"karate","arguments":[]},"keyword":"*","line":11},{"name":"print temp.id","result":{"duration":17668000,"status":"passed"},"match":{"location":"karate","arguments":[]},"keyword":"*","line":12,"doc_string":{"content_type":"","value":"20:17:22.720 [print] null \n","line":12}},{"name":"def count = temp.data.length","result":{"duration":4552000,"status":"passed"},"match":{"location":"karate","arguments":[]},"keyword":"*","line":13},{"name":"print count","result":{"duration":6187600,"status":"passed"},"match":{"location":"karate","arguments":[]},"keyword":"*","line":14,"doc_string":{"content_type":"","value":"20:17:22.731 [print] 10 \n","line":14}}],"tags":[{"name":"@SmokeTest","line":2},{"name":"@RegressionTest","line":2}]}],"name":"Features\/getwithquery.feature","description":"get Method Json Example","id":"get-method-json-example","keyword":"Feature","uri":"Features\/getwithquery.feature"}]