{"failedCount":0,"prefixedPath":"classpath:Features\/getwithquery.feature","packageQualifiedName":"Features.getwithquery","loopIndex":-1,"relativePath":"Features\/getwithquery.feature","scenarioResults":[{"sectionIndex":0,"stepResults":[{"result":{"nanos":362746100,"millis":362.7461,"status":"passed"},"step":{"line":5,"prefix":"*","index":0,"text":"def query = {status : 'active' , gender : 'male' }"}},{"result":{"nanos":8825700,"millis":8.8257,"status":"passed"},"step":{"line":6,"prefix":"Given","index":1,"text":"url 'https:\/\/gorest.co.in\/public\/v1\/users\/'"}},{"result":{"nanos":45858800,"millis":45.8588,"status":"passed"},"step":{"line":7,"prefix":"And","index":2,"text":"params query"}},{"result":{"nanos":888651200,"millis":888.6512,"status":"passed"},"step":{"line":8,"prefix":"When","index":3,"text":"method GET"},"stepLog":"20:17:22.001 request:\n1 > GET https:\/\/gorest.co.in\/public\/v1\/users\/?gender=male&status=active\n1 > Host: gorest.co.in\n1 > Connection: Keep-Alive\n1 > User-Agent: Apache-HttpClient\/4.5.12 (Java\/16.0.1)\n1 > Accept-Encoding: gzip,deflate\n\n\n20:17:22.694 response time in milliseconds: 685\n1 < 200\n1 < Date: Fri, 15 Jul 2022 14:47:22 GMT\n1 < Content-Type: application\/json; charset=utf-8\n1 < Transfer-Encoding: chunked\n1 < Connection: keep-alive\n1 < Vary: Accept-Encoding\n1 < Vary: Origin\n1 < X-Frame-Options: SAMEORIGIN\n1 < X-XSS-Protection: 0\n1 < X-Content-Type-Options: nosniff\n1 < X-Download-Options: noopen\n1 < X-Permitted-Cross-Domain-Policies: none\n1 < Referrer-Policy: strict-origin-when-cross-origin\n1 < ETag: W\/\"66917509ebd29b76b2903a90d92c050a\"\n1 < Cache-Control: max-age=0, private, must-revalidate\n1 < X-Request-Id: 58196b00-a179-46bd-a5f6-117e5c784c84\n1 < X-Runtime: 0.006949\n1 < Strict-Transport-Security: max-age=63072000; includeSubDomains\n1 < CF-Cache-Status: DYNAMIC\n1 < Expect-CT: max-age=604800, report-uri=\"https:\/\/report-uri.cloudflare.com\/cdn-cgi\/beacon\/expect-ct\"\n1 < Report-To: {\"endpoints\":[{\"url\":\"https:\\\/\\\/a.nel.cloudflare.com\\\/report\\\/v3?s=gtqGrUAZgVWS%2BPIZOUazftpz5QujoSI9A56Yop6NekW2IT0Q6u9CcUkKxuKpD1gXvRVxkGkJrcU4HCh3iG4HZcUnjOEHfuFgZdOJAcfHxIvKMJHsvGXB8YNtVjsYFs0%3D\"}],\"group\":\"cf-nel\",\"max_age\":604800}\n1 < NEL: {\"success_fraction\":0,\"report_to\":\"cf-nel\",\"max_age\":604800}\n1 < Server: cloudflare\n1 < CF-RAY: 72b34afc082731be-BOM\n1 < alt-svc: h3=\":443\"; ma=86400, h3-29=\":443\"; ma=86400\n{\"meta\":{\"pagination\":{\"total\":791,\"pages\":80,\"page\":1,\"limit\":10,\"links\":{\"previous\":null,\"current\":\"https:\/\/gorest.co.in\/public\/v1\/users?page=1\",\"next\":\"https:\/\/gorest.co.in\/public\/v1\/users?page=2\"}}},\"data\":[{\"id\":3204,\"name\":\"Nagabhushanam Rana\",\"email\":\"nagabhushanam_rana@prohaska.net\",\"gender\":\"male\",\"status\":\"active\"},{\"id\":3199,\"name\":\"Amaresh Trivedi\",\"email\":\"trivedi_amaresh@stracke.io\",\"gender\":\"male\",\"status\":\"active\"},{\"id\":3198,\"name\":\"Miss Chaturaanan Kaul\",\"email\":\"chaturaanan_kaul_miss@von.name\",\"gender\":\"male\",\"status\":\"active\"},{\"id\":3179,\"name\":\"Pranay Shukla\",\"email\":\"pranay_shukla@oberbrunner-leannon.co\",\"gender\":\"male\",\"status\":\"active\"},{\"id\":3178,\"name\":\"Chandraprabha Guneta PhD\",\"email\":\"phd_chandraprabha_guneta@durgan.info\",\"gender\":\"male\",\"status\":\"active\"},{\"id\":3176,\"name\":\"Miss Geetanjali Gowda\",\"email\":\"miss_geetanjali_gowda@kutch.info\",\"gender\":\"male\",\"status\":\"active\"},{\"id\":3169,\"name\":\"Prof. Giriraj Patel\",\"email\":\"giriraj_prof_patel@zieme.info\",\"gender\":\"male\",\"status\":\"active\"},{\"id\":3168,\"name\":\"Ritesh Jha Jr.\",\"email\":\"jha_jr_ritesh@ernser-reynolds.io\",\"gender\":\"male\",\"status\":\"active\"},{\"id\":3166,\"name\":\"Baidehi Ahuja\",\"email\":\"baidehi_ahuja@frami.co\",\"gender\":\"male\",\"status\":\"active\"},{\"id\":3160,\"name\":\"Aanandaswarup Dubashi JD\",\"email\":\"aanandaswarup_jd_dubashi@roberts-cartwright.info\",\"gender\":\"male\",\"status\":\"active\"}]}\n\n"},{"result":{"nanos":31500,"millis":0.0315,"status":"passed"},"step":{"line":9,"prefix":"Then","index":4,"text":"status 200"}},{"result":{"nanos":3820000,"millis":3.82,"status":"passed"},"step":{"line":10,"prefix":"*","index":5,"text":"print response"},"stepLog":"20:17:22.701 [print] {\n  \"meta\": {\n    \"pagination\": {\n      \"total\": 791,\n      \"pages\": 80,\n      \"page\": 1,\n      \"limit\": 10,\n      \"links\": {\n        \"previous\": null,\n        \"current\": \"https:\/\/gorest.co.in\/public\/v1\/users?page=1\",\n        \"next\": \"https:\/\/gorest.co.in\/public\/v1\/users?page=2\"\n      }\n    }\n  },\n  \"data\": [\n    {\n      \"id\": 3204,\n      \"name\": \"Nagabhushanam Rana\",\n      \"email\": \"nagabhushanam_rana@prohaska.net\",\n      \"gender\": \"male\",\n      \"status\": \"active\"\n    },\n    {\n      \"id\": 3199,\n      \"name\": \"Amaresh Trivedi\",\n      \"email\": \"trivedi_amaresh@stracke.io\",\n      \"gender\": \"male\",\n      \"status\": \"active\"\n    },\n    {\n      \"id\": 3198,\n      \"name\": \"Miss Chaturaanan Kaul\",\n      \"email\": \"chaturaanan_kaul_miss@von.name\",\n      \"gender\": \"male\",\n      \"status\": \"active\"\n    },\n    {\n      \"id\": 3179,\n      \"name\": \"Pranay Shukla\",\n      \"email\": \"pranay_shukla@oberbrunner-leannon.co\",\n      \"gender\": \"male\",\n      \"status\": \"active\"\n    },\n    {\n      \"id\": 3178,\n      \"name\": \"Chandraprabha Guneta PhD\",\n      \"email\": \"phd_chandraprabha_guneta@durgan.info\",\n      \"gender\": \"male\",\n      \"status\": \"active\"\n    },\n    {\n      \"id\": 3176,\n      \"name\": \"Miss Geetanjali Gowda\",\n      \"email\": \"miss_geetanjali_gowda@kutch.info\",\n      \"gender\": \"male\",\n      \"status\": \"active\"\n    },\n    {\n      \"id\": 3169,\n      \"name\": \"Prof. Giriraj Patel\",\n      \"email\": \"giriraj_prof_patel@zieme.info\",\n      \"gender\": \"male\",\n      \"status\": \"active\"\n    },\n    {\n      \"id\": 3168,\n      \"name\": \"Ritesh Jha Jr.\",\n      \"email\": \"jha_jr_ritesh@ernser-reynolds.io\",\n      \"gender\": \"male\",\n      \"status\": \"active\"\n    },\n    {\n      \"id\": 3166,\n      \"name\": \"Baidehi Ahuja\",\n      \"email\": \"baidehi_ahuja@frami.co\",\n      \"gender\": \"male\",\n      \"status\": \"active\"\n    },\n    {\n      \"id\": 3160,\n      \"name\": \"Aanandaswarup Dubashi JD\",\n      \"email\": \"aanandaswarup_jd_dubashi@roberts-cartwright.info\",\n      \"gender\": \"male\",\n      \"status\": \"active\"\n    }\n  ]\n}\n \n"},{"result":{"nanos":684100,"millis":0.6841,"status":"passed"},"step":{"line":11,"prefix":"*","index":6,"text":"def temp = response"}},{"result":{"nanos":17668000,"millis":17.668,"status":"passed"},"step":{"line":12,"prefix":"*","index":7,"text":"print temp.id"},"stepLog":"20:17:22.720 [print] null \n"},{"result":{"nanos":4552000,"millis":4.552,"status":"passed"},"step":{"line":13,"prefix":"*","index":8,"text":"def count = temp.data.length"}},{"result":{"nanos":6187600,"millis":6.1876,"status":"passed"},"step":{"line":14,"prefix":"*","index":9,"text":"print count"},"stepLog":"20:17:22.731 [print] 10 \n"}],"line":3,"description":"","durationMillis":1339.025,"failed":false,"tags":["SmokeTest","RegressionTest"],"executorName":"pool-1-thread-3","name":"Get Details using get method","startTime":1657896441371,"refId":"[1:3]","endTime":1657896442731,"exampleIndex":-1}],"callDepth":0,"name":"get Method Json Example","description":"","resultDate":"2022-07-15 08:17:25 pm","durationMillis":1339.025,"passedCount":1}