[{"line":1,"elements":[{"start_timestamp":"2022-07-11T10:28:33.071Z","line":3,"name":"Get Details using get method","description":"","id":"get-details-using-get-method","type":"scenario","keyword":"Scenario","steps":[{"name":"def query = {status : 'active' , gender : 'male' }","result":{"duration":183984000,"status":"passed"},"match":{"location":"karate","arguments":[]},"keyword":"*","line":5},{"name":"url 'https:\/\/gorest.co.in\/public\/v1\/users\/'","result":{"duration":1386700,"status":"passed"},"match":{"location":"karate","arguments":[]},"keyword":"Given","line":6},{"name":"params query","result":{"duration":41976599,"status":"passed"},"match":{"location":"karate","arguments":[]},"keyword":"And","line":7},{"name":"method GET","result":{"duration":1518491200,"status":"passed"},"match":{"location":"karate","arguments":[]},"keyword":"When","line":8,"doc_string":{"content_type":"","value":"15:58:33.940 request:\n1 > GET https:\/\/gorest.co.in\/public\/v1\/users\/?gender=male&status=active\n1 > Host: gorest.co.in\n1 > Connection: Keep-Alive\n1 > User-Agent: Apache-HttpClient\/4.5.12 (Java\/1.8.0_311)\n1 > Accept-Encoding: gzip,deflate\n\n\n15:58:34.938 response time in milliseconds: 982\n1 < 200\n1 < Date: Mon, 11 Jul 2022 10:28:34 GMT\n1 < Content-Type: application\/json; charset=utf-8\n1 < Transfer-Encoding: chunked\n1 < Connection: keep-alive\n1 < Vary: Accept-Encoding\n1 < Vary: Origin\n1 < X-Frame-Options: SAMEORIGIN\n1 < X-XSS-Protection: 0\n1 < X-Content-Type-Options: nosniff\n1 < X-Download-Options: noopen\n1 < X-Permitted-Cross-Domain-Policies: none\n1 < Referrer-Policy: strict-origin-when-cross-origin\n1 < ETag: W\/\"9a0d820a8eb4ef6f88887a7ee9ab8a21\"\n1 < Cache-Control: max-age=0, private, must-revalidate\n1 < X-Request-Id: 18d72701-28a3-4aa8-9c76-0f43d67c06a3\n1 < X-Runtime: 0.010808\n1 < Strict-Transport-Security: max-age=63072000; includeSubDomains\n1 < CF-Cache-Status: DYNAMIC\n1 < Expect-CT: max-age=604800, report-uri=\"https:\/\/report-uri.cloudflare.com\/cdn-cgi\/beacon\/expect-ct\"\n1 < Report-To: {\"endpoints\":[{\"url\":\"https:\\\/\\\/a.nel.cloudflare.com\\\/report\\\/v3?s=4BvHJhMapCTw%2BkJkm8hawALIH2P%2F%2FgJAkkArGLg3YIZ4rNeHVPZOFCT1f3kvVdoDXj%2FspjosPM2qpyU8jzL21B6FYCa1WW1Ef1JC%2F%2F90c4gku7PtFt8tmHMzEiqNtDI%3D\"}],\"group\":\"cf-nel\",\"max_age\":604800}\n1 < NEL: {\"success_fraction\":0,\"report_to\":\"cf-nel\",\"max_age\":604800}\n1 < Server: cloudflare\n1 < CF-RAY: 7290da627fa731e7-BOM\n1 < alt-svc: h3=\":443\"; ma=86400, h3-29=\":443\"; ma=86400\n{\"meta\":{\"pagination\":{\"total\":995,\"pages\":100,\"page\":1,\"limit\":10,\"links\":{\"previous\":null,\"current\":\"https:\/\/gorest.co.in\/public\/v1\/users?page=1\",\"next\":\"https:\/\/gorest.co.in\/public\/v1\/users?page=2\"}}},\"data\":[{\"id\":3919,\"name\":\"Bhudeva Khan\",\"email\":\"bhudeva_khan@goldner.net\",\"gender\":\"male\",\"status\":\"active\"},{\"id\":3918,\"name\":\"Tanya Dubashi V\",\"email\":\"v_tanya_dubashi@kihn-nolan.org\",\"gender\":\"male\",\"status\":\"active\"},{\"id\":3911,\"name\":\"Mr. Soma Chaturvedi\",\"email\":\"mr_soma_chaturvedi@wilderman.name\",\"gender\":\"male\",\"status\":\"active\"},{\"id\":3909,\"name\":\"Kannan Iyer\",\"email\":\"iyer_kannan@schmeler.net\",\"gender\":\"male\",\"status\":\"active\"},{\"id\":3906,\"name\":\"Pranay Sharma\",\"email\":\"sharma_pranay@crooks-kris.biz\",\"gender\":\"male\",\"status\":\"active\"},{\"id\":3905,\"name\":\"Charvi Nayar\",\"email\":\"charvi_nayar@kunde.co\",\"gender\":\"male\",\"status\":\"active\"},{\"id\":3902,\"name\":\"Trilochana Embranthiri\",\"email\":\"embranthiri_trilochana@nicolas.name\",\"gender\":\"male\",\"status\":\"active\"},{\"id\":3900,\"name\":\"Gemini Nambeesan\",\"email\":\"nambeesan_gemini@welch-torp.co\",\"gender\":\"male\",\"status\":\"active\"},{\"id\":3896,\"name\":\"Abani Rana\",\"email\":\"rana_abani@boyer-parisian.com\",\"gender\":\"male\",\"status\":\"active\"},{\"id\":3892,\"name\":\"Aryan Desai\",\"email\":\"aryan_desai@nicolas.org\",\"gender\":\"male\",\"status\":\"active\"}]}\n\n","line":8}},{"name":"status 200","result":{"duration":9499,"status":"passed"},"match":{"location":"karate","arguments":[]},"keyword":"Then","line":9},{"name":"print response","result":{"duration":47183300,"status":"passed"},"match":{"location":"karate","arguments":[]},"keyword":"*","line":10,"doc_string":{"content_type":"","value":"15:58:34.989 [print] {\n  \"meta\": {\n    \"pagination\": {\n      \"total\": 995,\n      \"pages\": 100,\n      \"page\": 1,\n      \"limit\": 10,\n      \"links\": {\n        \"previous\": null,\n        \"current\": \"https:\/\/gorest.co.in\/public\/v1\/users?page=1\",\n        \"next\": \"https:\/\/gorest.co.in\/public\/v1\/users?page=2\"\n      }\n    }\n  },\n  \"data\": [\n    {\n      \"id\": 3919,\n      \"name\": \"Bhudeva Khan\",\n      \"email\": \"bhudeva_khan@goldner.net\",\n      \"gender\": \"male\",\n      \"status\": \"active\"\n    },\n    {\n      \"id\": 3918,\n      \"name\": \"Tanya Dubashi V\",\n      \"email\": \"v_tanya_dubashi@kihn-nolan.org\",\n      \"gender\": \"male\",\n      \"status\": \"active\"\n    },\n    {\n      \"id\": 3911,\n      \"name\": \"Mr. Soma Chaturvedi\",\n      \"email\": \"mr_soma_chaturvedi@wilderman.name\",\n      \"gender\": \"male\",\n      \"status\": \"active\"\n    },\n    {\n      \"id\": 3909,\n      \"name\": \"Kannan Iyer\",\n      \"email\": \"iyer_kannan@schmeler.net\",\n      \"gender\": \"male\",\n      \"status\": \"active\"\n    },\n    {\n      \"id\": 3906,\n      \"name\": \"Pranay Sharma\",\n      \"email\": \"sharma_pranay@crooks-kris.biz\",\n      \"gender\": \"male\",\n      \"status\": \"active\"\n    },\n    {\n      \"id\": 3905,\n      \"name\": \"Charvi Nayar\",\n      \"email\": \"charvi_nayar@kunde.co\",\n      \"gender\": \"male\",\n      \"status\": \"active\"\n    },\n    {\n      \"id\": 3902,\n      \"name\": \"Trilochana Embranthiri\",\n      \"email\": \"embranthiri_trilochana@nicolas.name\",\n      \"gender\": \"male\",\n      \"status\": \"active\"\n    },\n    {\n      \"id\": 3900,\n      \"name\": \"Gemini Nambeesan\",\n      \"email\": \"nambeesan_gemini@welch-torp.co\",\n      \"gender\": \"male\",\n      \"status\": \"active\"\n    },\n    {\n      \"id\": 3896,\n      \"name\": \"Abani Rana\",\n      \"email\": \"rana_abani@boyer-parisian.com\",\n      \"gender\": \"male\",\n      \"status\": \"active\"\n    },\n    {\n      \"id\": 3892,\n      \"name\": \"Aryan Desai\",\n      \"email\": \"aryan_desai@nicolas.org\",\n      \"gender\": \"male\",\n      \"status\": \"active\"\n    }\n  ]\n}\n \n","line":10}},{"name":"def temp = response","result":{"duration":405999,"status":"passed"},"match":{"location":"karate","arguments":[]},"keyword":"*","line":11},{"name":"print temp.id","result":{"duration":16423099,"status":"passed"},"match":{"location":"karate","arguments":[]},"keyword":"*","line":12,"doc_string":{"content_type":"","value":"15:58:35.005 [print] null \n","line":12}},{"name":"def count = temp.data.length","result":{"duration":2085400,"status":"passed"},"match":{"location":"karate","arguments":[]},"keyword":"*","line":13},{"name":"print count","result":{"duration":22615200,"status":"passed"},"match":{"location":"karate","arguments":[]},"keyword":"*","line":14,"doc_string":{"content_type":"","value":"15:58:35.031 [print] 10 \n","line":14}}],"tags":[{"name":"@SmokeTest","line":2},{"name":"@RegressionTest","line":2}]}],"name":"Features\/getwithquery.feature","description":"get Method Json Example","id":"get-method-json-example","keyword":"Feature","uri":"Features\/getwithquery.feature"}]