[{"line":1,"elements":[{"start_timestamp":"2022-07-08T07:50:32.523Z","line":3,"name":"Get Details using get method","description":"","id":"get-details-using-get-method","type":"scenario","keyword":"Scenario","steps":[{"name":"def query = {status : 'active' , gender : 'male' }","result":{"duration":124648900,"status":"passed"},"match":{"location":"karate","arguments":[]},"keyword":"*","line":5},{"name":"url 'https:\/\/gorest.co.in\/public\/v1\/users\/'","result":{"duration":55280600,"status":"passed"},"match":{"location":"karate","arguments":[]},"keyword":"Given","line":6},{"name":"params query","result":{"duration":33642400,"status":"passed"},"match":{"location":"karate","arguments":[]},"keyword":"And","line":7},{"name":"method GET","result":{"duration":1639234100,"status":"passed"},"match":{"location":"karate","arguments":[]},"keyword":"When","line":8,"doc_string":{"content_type":"","value":"13:20:33.332 request:\n1 > GET https:\/\/gorest.co.in\/public\/v1\/users\/?gender=male&status=active\n1 > Host: gorest.co.in\n1 > Connection: Keep-Alive\n1 > User-Agent: Apache-HttpClient\/4.5.12 (Java\/16.0.1)\n1 > Accept-Encoding: gzip,deflate\n\n\n13:20:34.398 response time in milliseconds: 1065\n1 < 200\n1 < Date: Fri, 08 Jul 2022 07:50:33 GMT\n1 < Content-Type: application\/json; charset=utf-8\n1 < Transfer-Encoding: chunked\n1 < Connection: keep-alive\n1 < Vary: Accept-Encoding\n1 < Vary: Origin\n1 < X-Frame-Options: SAMEORIGIN\n1 < X-XSS-Protection: 0\n1 < X-Content-Type-Options: nosniff\n1 < X-Download-Options: noopen\n1 < X-Permitted-Cross-Domain-Policies: none\n1 < Referrer-Policy: strict-origin-when-cross-origin\n1 < ETag: W\/\"ba87f915a355345b97b083eceb13db34\"\n1 < Cache-Control: max-age=0, private, must-revalidate\n1 < X-Request-Id: 12b548d0-0942-45fa-8e21-4dae65e80a96\n1 < X-Runtime: 0.007791\n1 < Strict-Transport-Security: max-age=63072000; includeSubDomains\n1 < CF-Cache-Status: DYNAMIC\n1 < Expect-CT: max-age=604800, report-uri=\"https:\/\/report-uri.cloudflare.com\/cdn-cgi\/beacon\/expect-ct\"\n1 < Report-To: {\"endpoints\":[{\"url\":\"https:\\\/\\\/a.nel.cloudflare.com\\\/report\\\/v3?s=iFylbvbKLr2WsIMI1vcsFIe5LssUPJ98ereXs85u%2FZAvPbFWZkrb%2Fs90zEzGvhPiJZ9ePZ6a5KPWG%2FORiA%2BEPi2YSEvA%2BsrEXwm5%2Bf3WGNWiaoqJ9o7ALOa5MABsyl8%3D\"}],\"group\":\"cf-nel\",\"max_age\":604800}\n1 < NEL: {\"success_fraction\":0,\"report_to\":\"cf-nel\",\"max_age\":604800}\n1 < Server: cloudflare\n1 < CF-RAY: 72773acb4c9a94c8-CCU\n1 < alt-svc: h3=\":443\"; ma=86400, h3-29=\":443\"; ma=86400\n{\"meta\":{\"pagination\":{\"total\":670,\"pages\":67,\"page\":1,\"limit\":10,\"links\":{\"previous\":null,\"current\":\"https:\/\/gorest.co.in\/public\/v1\/users?page=1\",\"next\":\"https:\/\/gorest.co.in\/public\/v1\/users?page=2\"}}},\"data\":[{\"id\":2631,\"name\":\"Ahalya Dhawan\",\"email\":\"dhawan_ahalya@walter.net\",\"gender\":\"male\",\"status\":\"active\"},{\"id\":2620,\"name\":\"Sen. Tej Bharadwaj\",\"email\":\"tej_sen_bharadwaj@murray.com\",\"gender\":\"male\",\"status\":\"active\"},{\"id\":2616,\"name\":\"Aanandinii Kapoor\",\"email\":\"kapoor_aanandinii@heaney.name\",\"gender\":\"male\",\"status\":\"active\"},{\"id\":2613,\"name\":\"Chapal Nehru\",\"email\":\"nehru_chapal@macejkovic.info\",\"gender\":\"male\",\"status\":\"active\"},{\"id\":2612,\"name\":\"Amritambu Asan\",\"email\":\"asan_amritambu@mitchell.com\",\"gender\":\"male\",\"status\":\"active\"},{\"id\":2611,\"name\":\"Acharyasuta Talwar DC\",\"email\":\"acharyasuta_dc_talwar@mills.co\",\"gender\":\"male\",\"status\":\"active\"},{\"id\":2608,\"name\":\"Sarisha Iyer\",\"email\":\"sarisha_iyer@mueller.info\",\"gender\":\"male\",\"status\":\"active\"},{\"id\":2603,\"name\":\"Deepankar Adiga\",\"email\":\"deepankar_adiga@larson.io\",\"gender\":\"male\",\"status\":\"active\"},{\"id\":2599,\"name\":\"Digambar Sharma\",\"email\":\"digambar_sharma@will.io\",\"gender\":\"male\",\"status\":\"active\"},{\"id\":2598,\"name\":\"Gopaal Marar\",\"email\":\"gopaal_marar@stark-conn.io\",\"gender\":\"male\",\"status\":\"active\"}]}\n\n","line":8}},{"name":"status 200","result":{"duration":14300,"status":"passed"},"match":{"location":"karate","arguments":[]},"keyword":"Then","line":9},{"name":"print response","result":{"duration":5431300,"status":"passed"},"match":{"location":"karate","arguments":[]},"keyword":"*","line":10,"doc_string":{"content_type":"","value":"13:20:34.407 [print] {\n  \"meta\": {\n    \"pagination\": {\n      \"total\": 670,\n      \"pages\": 67,\n      \"page\": 1,\n      \"limit\": 10,\n      \"links\": {\n        \"previous\": null,\n        \"current\": \"https:\/\/gorest.co.in\/public\/v1\/users?page=1\",\n        \"next\": \"https:\/\/gorest.co.in\/public\/v1\/users?page=2\"\n      }\n    }\n  },\n  \"data\": [\n    {\n      \"id\": 2631,\n      \"name\": \"Ahalya Dhawan\",\n      \"email\": \"dhawan_ahalya@walter.net\",\n      \"gender\": \"male\",\n      \"status\": \"active\"\n    },\n    {\n      \"id\": 2620,\n      \"name\": \"Sen. Tej Bharadwaj\",\n      \"email\": \"tej_sen_bharadwaj@murray.com\",\n      \"gender\": \"male\",\n      \"status\": \"active\"\n    },\n    {\n      \"id\": 2616,\n      \"name\": \"Aanandinii Kapoor\",\n      \"email\": \"kapoor_aanandinii@heaney.name\",\n      \"gender\": \"male\",\n      \"status\": \"active\"\n    },\n    {\n      \"id\": 2613,\n      \"name\": \"Chapal Nehru\",\n      \"email\": \"nehru_chapal@macejkovic.info\",\n      \"gender\": \"male\",\n      \"status\": \"active\"\n    },\n    {\n      \"id\": 2612,\n      \"name\": \"Amritambu Asan\",\n      \"email\": \"asan_amritambu@mitchell.com\",\n      \"gender\": \"male\",\n      \"status\": \"active\"\n    },\n    {\n      \"id\": 2611,\n      \"name\": \"Acharyasuta Talwar DC\",\n      \"email\": \"acharyasuta_dc_talwar@mills.co\",\n      \"gender\": \"male\",\n      \"status\": \"active\"\n    },\n    {\n      \"id\": 2608,\n      \"name\": \"Sarisha Iyer\",\n      \"email\": \"sarisha_iyer@mueller.info\",\n      \"gender\": \"male\",\n      \"status\": \"active\"\n    },\n    {\n      \"id\": 2603,\n      \"name\": \"Deepankar Adiga\",\n      \"email\": \"deepankar_adiga@larson.io\",\n      \"gender\": \"male\",\n      \"status\": \"active\"\n    },\n    {\n      \"id\": 2599,\n      \"name\": \"Digambar Sharma\",\n      \"email\": \"digambar_sharma@will.io\",\n      \"gender\": \"male\",\n      \"status\": \"active\"\n    },\n    {\n      \"id\": 2598,\n      \"name\": \"Gopaal Marar\",\n      \"email\": \"gopaal_marar@stark-conn.io\",\n      \"gender\": \"male\",\n      \"status\": \"active\"\n    }\n  ]\n}\n \n","line":10}},{"name":"def temp = response","result":{"duration":544700,"status":"passed"},"match":{"location":"karate","arguments":[]},"keyword":"*","line":11},{"name":"print temp.id","result":{"duration":8557300,"status":"passed"},"match":{"location":"karate","arguments":[]},"keyword":"*","line":12,"doc_string":{"content_type":"","value":"13:20:34.416 [print] null \n","line":12}},{"name":"def count = temp.data.length","result":{"duration":1168000,"status":"passed"},"match":{"location":"karate","arguments":[]},"keyword":"*","line":13},{"name":"print count","result":{"duration":1151200,"status":"passed"},"match":{"location":"karate","arguments":[]},"keyword":"*","line":14,"doc_string":{"content_type":"","value":"13:20:34.419 [print] 10 \n","line":14}}],"tags":[]}],"name":"Features\/getwithquery.feature","description":"get Method Json Example","id":"get-method-json-example","keyword":"Feature","uri":"Features\/getwithquery.feature"}]