[{"line":1,"elements":[{"start_timestamp":"2022-07-21T14:39:11.017Z","line":3,"name":"Get Details using get method","description":"","id":"get-details-using-get-method","type":"scenario","keyword":"Scenario","steps":[{"name":"def query = {status : 'active' , gender : 'male' }","result":{"duration":963100,"status":"passed"},"match":{"location":"karate","arguments":[]},"keyword":"*","line":5},{"name":"url 'https:\/\/gorest.co.in\/public\/v1\/users\/'","result":{"duration":985300,"status":"passed"},"match":{"location":"karate","arguments":[]},"keyword":"Given","line":6},{"name":"params query","result":{"duration":2083200,"status":"passed"},"match":{"location":"karate","arguments":[]},"keyword":"And","line":7},{"name":"method GET","result":{"duration":282366801,"status":"passed"},"match":{"location":"karate","arguments":[]},"keyword":"When","line":8,"doc_string":{"content_type":"","value":"20:09:11.025 request:\n1 > GET https:\/\/gorest.co.in\/public\/v1\/users\/?gender=male&status=active\n1 > Host: gorest.co.in\n1 > Connection: Keep-Alive\n1 > User-Agent: Apache-HttpClient\/4.5.12 (Java\/1.8.0_311)\n1 > Accept-Encoding: gzip,deflate\n\n\n20:09:11.303 response time in milliseconds: 264\n1 < 200\n1 < Date: Thu, 21 Jul 2022 14:39:10 GMT\n1 < Content-Type: application\/json; charset=utf-8\n1 < Transfer-Encoding: chunked\n1 < Connection: keep-alive\n1 < Vary: Accept-Encoding\n1 < Vary: Origin\n1 < X-Frame-Options: SAMEORIGIN\n1 < X-XSS-Protection: 0\n1 < X-Content-Type-Options: nosniff\n1 < X-Download-Options: noopen\n1 < X-Permitted-Cross-Domain-Policies: none\n1 < Referrer-Policy: strict-origin-when-cross-origin\n1 < ETag: W\/\"9f245e2454265491cb49dc81786108ed\"\n1 < Cache-Control: max-age=0, private, must-revalidate\n1 < X-Request-Id: 1ed82d29-a1cc-4607-8e1e-718f3829fa2e\n1 < X-Runtime: 0.009029\n1 < Strict-Transport-Security: max-age=63072000; includeSubDomains\n1 < CF-Cache-Status: DYNAMIC\n1 < Expect-CT: max-age=604800, report-uri=\"https:\/\/report-uri.cloudflare.com\/cdn-cgi\/beacon\/expect-ct\"\n1 < Report-To: {\"endpoints\":[{\"url\":\"https:\\\/\\\/a.nel.cloudflare.com\\\/report\\\/v3?s=Yi3tPvZvUJ2%2FRm5riNBq11wzcPmSH%2Fx%2BKq6pLCExztoNSYCw58%2BGP%2Br5Sa%2FCXZjrCCnS4o7Y8jxSB6h9JFKHcTsQ0Y%2FD4D0kEwJfkYZPGWfM7j2jpxRv9FAmvh9IAlg%3D\"}],\"group\":\"cf-nel\",\"max_age\":604800}\n1 < NEL: {\"success_fraction\":0,\"report_to\":\"cf-nel\",\"max_age\":604800}\n1 < Server: cloudflare\n1 < CF-RAY: 72e4af3bee1d7a19-PAT\n1 < alt-svc: h3=\":443\"; ma=86400, h3-29=\":443\"; ma=86400\n{\"meta\":{\"pagination\":{\"total\":663,\"pages\":67,\"page\":1,\"limit\":10,\"links\":{\"previous\":null,\"current\":\"https:\/\/gorest.co.in\/public\/v1\/users?page=1\",\"next\":\"https:\/\/gorest.co.in\/public\/v1\/users?page=2\"}}},\"data\":[{\"id\":2612,\"name\":\"Kanaka Tagore Jr.\",\"email\":\"kanaka_jr_tagore@howe.org\",\"gender\":\"male\",\"status\":\"active\"},{\"id\":2602,\"name\":\"Bhoj Devar\",\"email\":\"bhoj_devar@pouros-heathcote.biz\",\"gender\":\"male\",\"status\":\"active\"},{\"id\":2599,\"name\":\"Girindra Kaniyar DO\",\"email\":\"kaniyar_girindra_do@weimann-mitchell.io\",\"gender\":\"male\",\"status\":\"active\"},{\"id\":2583,\"name\":\"Rep. Saraswati Mehra\",\"email\":\"rep_mehra_saraswati@rolfson-becker.com\",\"gender\":\"male\",\"status\":\"active\"},{\"id\":2579,\"name\":\"Fr. Chaturbhuj Desai\",\"email\":\"fr_chaturbhuj_desai@dickinson-prosacco.io\",\"gender\":\"male\",\"status\":\"active\"},{\"id\":2578,\"name\":\"Divya Khanna CPA\",\"email\":\"khanna_divya_cpa@stamm.net\",\"gender\":\"male\",\"status\":\"active\"},{\"id\":2572,\"name\":\"Abhaidev Bhattacharya\",\"email\":\"abhaidev_bhattacharya@gislason.name\",\"gender\":\"male\",\"status\":\"active\"},{\"id\":2570,\"name\":\"Bhargavi Somayaji\",\"email\":\"somayaji_bhargavi@wehner.biz\",\"gender\":\"male\",\"status\":\"active\"},{\"id\":2569,\"name\":\"Aasa Naik\",\"email\":\"naik_aasa@smitham.com\",\"gender\":\"male\",\"status\":\"active\"},{\"id\":2568,\"name\":\"Ganesh Tandon MD\",\"email\":\"md_tandon_ganesh@bosco.com\",\"gender\":\"male\",\"status\":\"active\"}]}\n\n","line":8}},{"name":"status 200","result":{"duration":14099,"status":"passed"},"match":{"location":"karate","arguments":[]},"keyword":"Then","line":9},{"name":"print response","result":{"duration":1820800,"status":"passed"},"match":{"location":"karate","arguments":[]},"keyword":"*","line":10,"doc_string":{"content_type":"","value":"20:09:11.306 [print] {\n  \"meta\": {\n    \"pagination\": {\n      \"total\": 663,\n      \"pages\": 67,\n      \"page\": 1,\n      \"limit\": 10,\n      \"links\": {\n        \"previous\": null,\n        \"current\": \"https:\/\/gorest.co.in\/public\/v1\/users?page=1\",\n        \"next\": \"https:\/\/gorest.co.in\/public\/v1\/users?page=2\"\n      }\n    }\n  },\n  \"data\": [\n    {\n      \"id\": 2612,\n      \"name\": \"Kanaka Tagore Jr.\",\n      \"email\": \"kanaka_jr_tagore@howe.org\",\n      \"gender\": \"male\",\n      \"status\": \"active\"\n    },\n    {\n      \"id\": 2602,\n      \"name\": \"Bhoj Devar\",\n      \"email\": \"bhoj_devar@pouros-heathcote.biz\",\n      \"gender\": \"male\",\n      \"status\": \"active\"\n    },\n    {\n      \"id\": 2599,\n      \"name\": \"Girindra Kaniyar DO\",\n      \"email\": \"kaniyar_girindra_do@weimann-mitchell.io\",\n      \"gender\": \"male\",\n      \"status\": \"active\"\n    },\n    {\n      \"id\": 2583,\n      \"name\": \"Rep. Saraswati Mehra\",\n      \"email\": \"rep_mehra_saraswati@rolfson-becker.com\",\n      \"gender\": \"male\",\n      \"status\": \"active\"\n    },\n    {\n      \"id\": 2579,\n      \"name\": \"Fr. Chaturbhuj Desai\",\n      \"email\": \"fr_chaturbhuj_desai@dickinson-prosacco.io\",\n      \"gender\": \"male\",\n      \"status\": \"active\"\n    },\n    {\n      \"id\": 2578,\n      \"name\": \"Divya Khanna CPA\",\n      \"email\": \"khanna_divya_cpa@stamm.net\",\n      \"gender\": \"male\",\n      \"status\": \"active\"\n    },\n    {\n      \"id\": 2572,\n      \"name\": \"Abhaidev Bhattacharya\",\n      \"email\": \"abhaidev_bhattacharya@gislason.name\",\n      \"gender\": \"male\",\n      \"status\": \"active\"\n    },\n    {\n      \"id\": 2570,\n      \"name\": \"Bhargavi Somayaji\",\n      \"email\": \"somayaji_bhargavi@wehner.biz\",\n      \"gender\": \"male\",\n      \"status\": \"active\"\n    },\n    {\n      \"id\": 2569,\n      \"name\": \"Aasa Naik\",\n      \"email\": \"naik_aasa@smitham.com\",\n      \"gender\": \"male\",\n      \"status\": \"active\"\n    },\n    {\n      \"id\": 2568,\n      \"name\": \"Ganesh Tandon MD\",\n      \"email\": \"md_tandon_ganesh@bosco.com\",\n      \"gender\": \"male\",\n      \"status\": \"active\"\n    }\n  ]\n}\n \n","line":10}},{"name":"def temp = response","result":{"duration":356901,"status":"passed"},"match":{"location":"karate","arguments":[]},"keyword":"*","line":11},{"name":"print temp.id","result":{"duration":1362400,"status":"passed"},"match":{"location":"karate","arguments":[]},"keyword":"*","line":12,"doc_string":{"content_type":"","value":"20:09:11.308 [print] null \n","line":12}},{"name":"def count = temp.data.length","result":{"duration":1236400,"status":"passed"},"match":{"location":"karate","arguments":[]},"keyword":"*","line":13},{"name":"print count","result":{"duration":940100,"status":"passed"},"match":{"location":"karate","arguments":[]},"keyword":"*","line":14,"doc_string":{"content_type":"","value":"20:09:11.310 [print] 10 \n","line":14}}],"tags":[{"name":"@SmokeTest","line":2},{"name":"@RegressionTest","line":2}]}],"name":"Features\/getwithquery.feature","description":"get Method Json Example","id":"get-method-json-example","keyword":"Feature","uri":"Features\/getwithquery.feature"}]