{"failedCount":0,"prefixedPath":"classpath:Features\/getwithquery.feature","packageQualifiedName":"Features.getwithquery","loopIndex":-1,"relativePath":"Features\/getwithquery.feature","scenarioResults":[{"sectionIndex":0,"stepResults":[{"result":{"nanos":661401,"millis":0.661401,"status":"passed"},"step":{"line":5,"prefix":"*","index":0,"text":"def query = {status : 'active' , gender : 'male' }"}},{"result":{"nanos":412300,"millis":0.4123,"status":"passed"},"step":{"line":6,"prefix":"Given","index":1,"text":"url 'https:\/\/gorest.co.in\/public\/v1\/users\/'"}},{"result":{"nanos":989900,"millis":0.9899,"status":"passed"},"step":{"line":7,"prefix":"And","index":2,"text":"params query"}},{"result":{"nanos":235730300,"millis":235.7303,"status":"passed"},"step":{"line":8,"prefix":"When","index":3,"text":"method GET"},"stepLog":"20:14:56.163 request:\n1 > GET https:\/\/gorest.co.in\/public\/v1\/users\/?gender=male&status=active\n1 > Host: gorest.co.in\n1 > Connection: Keep-Alive\n1 > User-Agent: Apache-HttpClient\/4.5.12 (Java\/1.8.0_311)\n1 > Accept-Encoding: gzip,deflate\n\n\n20:14:56.393 response time in milliseconds: 230\n1 < 200\n1 < Date: Wed, 20 Jul 2022 14:44:55 GMT\n1 < Content-Type: application\/json; charset=utf-8\n1 < Transfer-Encoding: chunked\n1 < Connection: keep-alive\n1 < Vary: Accept-Encoding\n1 < Vary: Origin\n1 < X-Frame-Options: SAMEORIGIN\n1 < X-XSS-Protection: 0\n1 < X-Content-Type-Options: nosniff\n1 < X-Download-Options: noopen\n1 < X-Permitted-Cross-Domain-Policies: none\n1 < Referrer-Policy: strict-origin-when-cross-origin\n1 < ETag: W\/\"a6d930fe4006ef651a887389937241ba\"\n1 < Cache-Control: max-age=0, private, must-revalidate\n1 < X-Request-Id: b1a86bbd-f786-46de-a295-5d9debf79250\n1 < X-Runtime: 0.006677\n1 < Strict-Transport-Security: max-age=63072000; includeSubDomains\n1 < CF-Cache-Status: DYNAMIC\n1 < Expect-CT: max-age=604800, report-uri=\"https:\/\/report-uri.cloudflare.com\/cdn-cgi\/beacon\/expect-ct\"\n1 < Report-To: {\"endpoints\":[{\"url\":\"https:\\\/\\\/a.nel.cloudflare.com\\\/report\\\/v3?s=VgwzTXLF50i7cb0KH47Oy83f0kRh2Tcm1hoSDTo8R3UI7gwRwrVuPA9dGSKl9%2B7ibPl0NNHodXJ1Tn%2B%2F0ARcsWRMk5s3QF2VknKYqudfGbxPjMgf7l5NCjQKcJT%2FCPQ%3D\"}],\"group\":\"cf-nel\",\"max_age\":604800}\n1 < NEL: {\"success_fraction\":0,\"report_to\":\"cf-nel\",\"max_age\":604800}\n1 < Server: cloudflare\n1 < CF-RAY: 72dc7a472d8a94c8-CCU\n1 < alt-svc: h3=\":443\"; ma=86400, h3-29=\":443\"; ma=86400\n{\"meta\":{\"pagination\":{\"total\":507,\"pages\":51,\"page\":1,\"limit\":10,\"links\":{\"previous\":null,\"current\":\"https:\/\/gorest.co.in\/public\/v1\/users?page=1\",\"next\":\"https:\/\/gorest.co.in\/public\/v1\/users?page=2\"}}},\"data\":[{\"id\":2265,\"name\":\"Gov. Swami Mukhopadhyay\",\"email\":\"mukhopadhyay_swami_gov@bernier.biz\",\"gender\":\"male\",\"status\":\"active\"},{\"id\":2263,\"name\":\"Mr. Anish Nambeesan\",\"email\":\"anish_nambeesan_mr@thompson-thiel.info\",\"gender\":\"male\",\"status\":\"active\"},{\"id\":2260,\"name\":\"Anuraag Butt\",\"email\":\"butt_anuraag@jaskolski.net\",\"gender\":\"male\",\"status\":\"active\"},{\"id\":2255,\"name\":\"Damayanti Bandopadhyay\",\"email\":\"bandopadhyay_damayanti@leffler-green.biz\",\"gender\":\"male\",\"status\":\"active\"},{\"id\":2246,\"name\":\"Vimala Mukhopadhyay\",\"email\":\"vimala_mukhopadhyay@roob.biz\",\"gender\":\"male\",\"status\":\"active\"},{\"id\":2232,\"name\":\"Miss Dinesh Bandopadhyay\",\"email\":\"miss_dinesh_bandopadhyay@daugherty-brekke.com\",\"gender\":\"male\",\"status\":\"active\"},{\"id\":2223,\"name\":\"Hiranmay Mishra PhD\",\"email\":\"hiranmay_mishra_phd@olson.io\",\"gender\":\"male\",\"status\":\"active\"},{\"id\":2218,\"name\":\"Anilaabh Pillai\",\"email\":\"pillai_anilaabh@roberts-krajcik.io\",\"gender\":\"male\",\"status\":\"active\"},{\"id\":2217,\"name\":\"Dr. Chaaruchandra Naik\",\"email\":\"chaaruchandra_dr_naik@feeney.biz\",\"gender\":\"male\",\"status\":\"active\"},{\"id\":2216,\"name\":\"Meena Menon II\",\"email\":\"meena_menon_ii@rau.org\",\"gender\":\"male\",\"status\":\"active\"}]}\n\n"},{"result":{"nanos":14800,"millis":0.0148,"status":"passed"},"step":{"line":9,"prefix":"Then","index":4,"text":"status 200"}},{"result":{"nanos":13820200,"millis":13.8202,"status":"passed"},"step":{"line":10,"prefix":"*","index":5,"text":"print response"},"stepLog":"20:14:56.410 [print] {\n  \"meta\": {\n    \"pagination\": {\n      \"total\": 507,\n      \"pages\": 51,\n      \"page\": 1,\n      \"limit\": 10,\n      \"links\": {\n        \"previous\": null,\n        \"current\": \"https:\/\/gorest.co.in\/public\/v1\/users?page=1\",\n        \"next\": \"https:\/\/gorest.co.in\/public\/v1\/users?page=2\"\n      }\n    }\n  },\n  \"data\": [\n    {\n      \"id\": 2265,\n      \"name\": \"Gov. Swami Mukhopadhyay\",\n      \"email\": \"mukhopadhyay_swami_gov@bernier.biz\",\n      \"gender\": \"male\",\n      \"status\": \"active\"\n    },\n    {\n      \"id\": 2263,\n      \"name\": \"Mr. Anish Nambeesan\",\n      \"email\": \"anish_nambeesan_mr@thompson-thiel.info\",\n      \"gender\": \"male\",\n      \"status\": \"active\"\n    },\n    {\n      \"id\": 2260,\n      \"name\": \"Anuraag Butt\",\n      \"email\": \"butt_anuraag@jaskolski.net\",\n      \"gender\": \"male\",\n      \"status\": \"active\"\n    },\n    {\n      \"id\": 2255,\n      \"name\": \"Damayanti Bandopadhyay\",\n      \"email\": \"bandopadhyay_damayanti@leffler-green.biz\",\n      \"gender\": \"male\",\n      \"status\": \"active\"\n    },\n    {\n      \"id\": 2246,\n      \"name\": \"Vimala Mukhopadhyay\",\n      \"email\": \"vimala_mukhopadhyay@roob.biz\",\n      \"gender\": \"male\",\n      \"status\": \"active\"\n    },\n    {\n      \"id\": 2232,\n      \"name\": \"Miss Dinesh Bandopadhyay\",\n      \"email\": \"miss_dinesh_bandopadhyay@daugherty-brekke.com\",\n      \"gender\": \"male\",\n      \"status\": \"active\"\n    },\n    {\n      \"id\": 2223,\n      \"name\": \"Hiranmay Mishra PhD\",\n      \"email\": \"hiranmay_mishra_phd@olson.io\",\n      \"gender\": \"male\",\n      \"status\": \"active\"\n    },\n    {\n      \"id\": 2218,\n      \"name\": \"Anilaabh Pillai\",\n      \"email\": \"pillai_anilaabh@roberts-krajcik.io\",\n      \"gender\": \"male\",\n      \"status\": \"active\"\n    },\n    {\n      \"id\": 2217,\n      \"name\": \"Dr. Chaaruchandra Naik\",\n      \"email\": \"chaaruchandra_dr_naik@feeney.biz\",\n      \"gender\": \"male\",\n      \"status\": \"active\"\n    },\n    {\n      \"id\": 2216,\n      \"name\": \"Meena Menon II\",\n      \"email\": \"meena_menon_ii@rau.org\",\n      \"gender\": \"male\",\n      \"status\": \"active\"\n    }\n  ]\n}\n \n"},{"result":{"nanos":619799,"millis":0.619799,"status":"passed"},"step":{"line":11,"prefix":"*","index":6,"text":"def temp = response"}},{"result":{"nanos":1775600,"millis":1.7756,"status":"passed"},"step":{"line":12,"prefix":"*","index":7,"text":"print temp.id"},"stepLog":"20:14:56.410 [print] null \n"},{"result":{"nanos":2290600,"millis":2.2906,"status":"passed"},"step":{"line":13,"prefix":"*","index":8,"text":"def count = temp.data.length"}},{"result":{"nanos":1826000,"millis":1.826,"status":"passed"},"step":{"line":14,"prefix":"*","index":9,"text":"print count"},"stepLog":"20:14:56.418 [print] 10 \n"}],"line":3,"description":"","durationMillis":258.1409,"failed":false,"tags":["SmokeTest","RegressionTest"],"executorName":"main","name":"Get Details using get method","startTime":1658328296159,"refId":"[1:3]","endTime":1658328296418,"exampleIndex":-1}],"callDepth":0,"name":"get Method Json Example","description":"","resultDate":"2022-07-20 08:14:56 PM","durationMillis":258.1409,"passedCount":1}