{"failedCount":0,"prefixedPath":"classpath:Features\/getwithquery.feature","packageQualifiedName":"Features.getwithquery","loopIndex":-1,"relativePath":"Features\/getwithquery.feature","scenarioResults":[{"sectionIndex":0,"stepResults":[{"result":{"nanos":428628600,"millis":428.6286,"status":"passed"},"step":{"line":5,"prefix":"*","index":0,"text":"def query = {status : 'active' , gender : 'male' }"}},{"result":{"nanos":22508500,"millis":22.5085,"status":"passed"},"step":{"line":6,"prefix":"Given","index":1,"text":"url 'https:\/\/gorest.co.in\/public\/v1\/users\/'"}},{"result":{"nanos":29234000,"millis":29.234,"status":"passed"},"step":{"line":7,"prefix":"And","index":2,"text":"params query"}},{"result":{"nanos":6773199100,"millis":6773.1991,"status":"passed"},"step":{"line":8,"prefix":"When","index":3,"text":"method GET"},"stepLog":"11:42:38.168 request:\n1 > GET https:\/\/gorest.co.in\/public\/v1\/users\/?gender=male&status=active\n1 > Host: gorest.co.in\n1 > Connection: Keep-Alive\n1 > User-Agent: Apache-HttpClient\/4.5.12 (Java\/16.0.1)\n1 > Accept-Encoding: gzip,deflate\n\n\n11:42:39.937 response time in milliseconds: 1769\n1 < 200\n1 < Date: Sun, 17 Jul 2022 06:12:40 GMT\n1 < Content-Type: application\/json; charset=utf-8\n1 < Transfer-Encoding: chunked\n1 < Connection: keep-alive\n1 < Vary: Accept-Encoding\n1 < Vary: Origin\n1 < X-Frame-Options: SAMEORIGIN\n1 < X-XSS-Protection: 0\n1 < X-Content-Type-Options: nosniff\n1 < X-Download-Options: noopen\n1 < X-Permitted-Cross-Domain-Policies: none\n1 < Referrer-Policy: strict-origin-when-cross-origin\n1 < ETag: W\/\"d2d8c988f0c56ae001193ce9d7dd9da4\"\n1 < Cache-Control: max-age=0, private, must-revalidate\n1 < X-Request-Id: 74364986-3612-49ea-8ec1-2bda2209dc98\n1 < X-Runtime: 0.006826\n1 < Strict-Transport-Security: max-age=63072000; includeSubDomains\n1 < CF-Cache-Status: DYNAMIC\n1 < Expect-CT: max-age=604800, report-uri=\"https:\/\/report-uri.cloudflare.com\/cdn-cgi\/beacon\/expect-ct\"\n1 < Report-To: {\"endpoints\":[{\"url\":\"https:\\\/\\\/a.nel.cloudflare.com\\\/report\\\/v3?s=T%2Bt2ivJa9ymaD4x3jocQxagRZF3hPyeF4Rg10mXEcYwPcH2Lra0gEMgd3kGBXoPmDD9gt053Fu7z60mO38t61zokGRopLAcVWJgLsiEZmkiByMdLPNyDw2PUViara2Q%3D\"}],\"group\":\"cf-nel\",\"max_age\":604800}\n1 < NEL: {\"success_fraction\":0,\"report_to\":\"cf-nel\",\"max_age\":604800}\n1 < Server: cloudflare\n1 < CF-RAY: 72c0d3c40ddc94b0-CCU\n1 < alt-svc: h3=\":443\"; ma=86400, h3-29=\":443\"; ma=86400\n{\"meta\":{\"pagination\":{\"total\":973,\"pages\":98,\"page\":1,\"limit\":10,\"links\":{\"previous\":null,\"current\":\"https:\/\/gorest.co.in\/public\/v1\/users?page=1\",\"next\":\"https:\/\/gorest.co.in\/public\/v1\/users?page=2\"}}},\"data\":[{\"id\":3853,\"name\":\"Daksha Patel MD\",\"email\":\"patel_daksha_md@ferry.com\",\"gender\":\"male\",\"status\":\"active\"},{\"id\":3852,\"name\":\"Tanushri Mehra\",\"email\":\"mehra_tanushri@corwin.biz\",\"gender\":\"male\",\"status\":\"active\"},{\"id\":3846,\"name\":\"Gauraang Acharya\",\"email\":\"gauraang_acharya@hand.name\",\"gender\":\"male\",\"status\":\"active\"},{\"id\":3845,\"name\":\"Dayaananda Bhattathiri\",\"email\":\"bhattathiri_dayaananda@bauch.info\",\"gender\":\"male\",\"status\":\"active\"},{\"id\":3841,\"name\":\"Subhash Agarwal\",\"email\":\"subhash_agarwal@towne.io\",\"gender\":\"male\",\"status\":\"active\"},{\"id\":3838,\"name\":\"Ms. Rupinder Gandhi\",\"email\":\"ms_gandhi_rupinder@borer-powlowski.net\",\"gender\":\"male\",\"status\":\"active\"},{\"id\":3833,\"name\":\"Bhuvaneshwar Khan II\",\"email\":\"bhuvaneshwar_khan_ii@kerluke.com\",\"gender\":\"male\",\"status\":\"active\"},{\"id\":3827,\"name\":\"Bakula Tandon VM\",\"email\":\"tandon_vm_bakula@hartmann-kunze.io\",\"gender\":\"male\",\"status\":\"active\"},{\"id\":3825,\"name\":\"Kashyap Pandey\",\"email\":\"pandey_kashyap@langosh-casper.com\",\"gender\":\"male\",\"status\":\"active\"},{\"id\":3824,\"name\":\"Amodini Deshpande\",\"email\":\"amodini_deshpande@schultz.org\",\"gender\":\"male\",\"status\":\"active\"}]}\n\n"},{"result":{"nanos":719300,"millis":0.7193,"status":"passed"},"step":{"line":9,"prefix":"Then","index":4,"text":"status 200"}},{"result":{"nanos":3873100,"millis":3.8731,"status":"passed"},"step":{"line":10,"prefix":"*","index":5,"text":"print response"},"stepLog":"11:42:39.949 [print] {\n  \"meta\": {\n    \"pagination\": {\n      \"total\": 973,\n      \"pages\": 98,\n      \"page\": 1,\n      \"limit\": 10,\n      \"links\": {\n        \"previous\": null,\n        \"current\": \"https:\/\/gorest.co.in\/public\/v1\/users?page=1\",\n        \"next\": \"https:\/\/gorest.co.in\/public\/v1\/users?page=2\"\n      }\n    }\n  },\n  \"data\": [\n    {\n      \"id\": 3853,\n      \"name\": \"Daksha Patel MD\",\n      \"email\": \"patel_daksha_md@ferry.com\",\n      \"gender\": \"male\",\n      \"status\": \"active\"\n    },\n    {\n      \"id\": 3852,\n      \"name\": \"Tanushri Mehra\",\n      \"email\": \"mehra_tanushri@corwin.biz\",\n      \"gender\": \"male\",\n      \"status\": \"active\"\n    },\n    {\n      \"id\": 3846,\n      \"name\": \"Gauraang Acharya\",\n      \"email\": \"gauraang_acharya@hand.name\",\n      \"gender\": \"male\",\n      \"status\": \"active\"\n    },\n    {\n      \"id\": 3845,\n      \"name\": \"Dayaananda Bhattathiri\",\n      \"email\": \"bhattathiri_dayaananda@bauch.info\",\n      \"gender\": \"male\",\n      \"status\": \"active\"\n    },\n    {\n      \"id\": 3841,\n      \"name\": \"Subhash Agarwal\",\n      \"email\": \"subhash_agarwal@towne.io\",\n      \"gender\": \"male\",\n      \"status\": \"active\"\n    },\n    {\n      \"id\": 3838,\n      \"name\": \"Ms. Rupinder Gandhi\",\n      \"email\": \"ms_gandhi_rupinder@borer-powlowski.net\",\n      \"gender\": \"male\",\n      \"status\": \"active\"\n    },\n    {\n      \"id\": 3833,\n      \"name\": \"Bhuvaneshwar Khan II\",\n      \"email\": \"bhuvaneshwar_khan_ii@kerluke.com\",\n      \"gender\": \"male\",\n      \"status\": \"active\"\n    },\n    {\n      \"id\": 3827,\n      \"name\": \"Bakula Tandon VM\",\n      \"email\": \"tandon_vm_bakula@hartmann-kunze.io\",\n      \"gender\": \"male\",\n      \"status\": \"active\"\n    },\n    {\n      \"id\": 3825,\n      \"name\": \"Kashyap Pandey\",\n      \"email\": \"pandey_kashyap@langosh-casper.com\",\n      \"gender\": \"male\",\n      \"status\": \"active\"\n    },\n    {\n      \"id\": 3824,\n      \"name\": \"Amodini Deshpande\",\n      \"email\": \"amodini_deshpande@schultz.org\",\n      \"gender\": \"male\",\n      \"status\": \"active\"\n    }\n  ]\n}\n \n"},{"result":{"nanos":1206500,"millis":1.2065,"status":"passed"},"step":{"line":11,"prefix":"*","index":6,"text":"def temp = response"}},{"result":{"nanos":7193800,"millis":7.1938,"status":"passed"},"step":{"line":12,"prefix":"*","index":7,"text":"print temp.id"},"stepLog":"11:42:39.959 [print] null \n"},{"result":{"nanos":2347500,"millis":2.3475,"status":"passed"},"step":{"line":13,"prefix":"*","index":8,"text":"def count = temp.data.length"}},{"result":{"nanos":1430400,"millis":1.4304,"status":"passed"},"step":{"line":14,"prefix":"*","index":9,"text":"print count"},"stepLog":"11:42:39.963 [print] 10 \n"}],"line":3,"description":"","durationMillis":7270.3408,"failed":false,"tags":["SmokeTest","RegressionTest"],"executorName":"pool-1-thread-3","name":"Get Details using get method","startTime":1658038352645,"refId":"[1:3]","endTime":1658038359963,"exampleIndex":-1}],"callDepth":0,"name":"get Method Json Example","description":"","resultDate":"2022-07-17 11:42:43 am","durationMillis":7270.3408,"passedCount":1}