[{"line":1,"elements":[{"start_timestamp":"2022-07-20T15:57:26.398Z","line":3,"name":"Get Details using get method","description":"","id":"get-details-using-get-method","type":"scenario","keyword":"Scenario","steps":[{"name":"def query = {status : 'active' , gender : 'male' }","result":{"duration":35835700,"status":"passed"},"match":{"location":"karate","arguments":[]},"keyword":"*","line":5},{"name":"url 'https:\/\/gorest.co.in\/public\/v1\/users\/'","result":{"duration":1329900,"status":"passed"},"match":{"location":"karate","arguments":[]},"keyword":"Given","line":6},{"name":"params query","result":{"duration":1989600,"status":"passed"},"match":{"location":"karate","arguments":[]},"keyword":"And","line":7},{"name":"method GET","result":{"duration":1275794100,"status":"passed"},"match":{"location":"karate","arguments":[]},"keyword":"When","line":8,"doc_string":{"content_type":"","value":"21:27:26.883 request:\n1 > GET https:\/\/gorest.co.in\/public\/v1\/users\/?gender=male&status=active\n1 > Host: gorest.co.in\n1 > Connection: Keep-Alive\n1 > User-Agent: Apache-HttpClient\/4.5.12 (Java\/1.8.0_311)\n1 > Accept-Encoding: gzip,deflate\n\n\n21:27:27.724 response time in milliseconds: 838\n1 < 200\n1 < Date: Wed, 20 Jul 2022 15:57:27 GMT\n1 < Content-Type: application\/json; charset=utf-8\n1 < Transfer-Encoding: chunked\n1 < Connection: keep-alive\n1 < Vary: Accept-Encoding\n1 < Vary: Origin\n1 < X-Frame-Options: SAMEORIGIN\n1 < X-XSS-Protection: 0\n1 < X-Content-Type-Options: nosniff\n1 < X-Download-Options: noopen\n1 < X-Permitted-Cross-Domain-Policies: none\n1 < Referrer-Policy: strict-origin-when-cross-origin\n1 < ETag: W\/\"5e0447f40a5ac71227e07a5b8cc6ca20\"\n1 < Cache-Control: max-age=0, private, must-revalidate\n1 < X-Request-Id: ff83629b-2fc5-4a84-9b6d-d9fb53ad1def\n1 < X-Runtime: 0.006323\n1 < Strict-Transport-Security: max-age=63072000; includeSubDomains\n1 < CF-Cache-Status: DYNAMIC\n1 < Expect-CT: max-age=604800, report-uri=\"https:\/\/report-uri.cloudflare.com\/cdn-cgi\/beacon\/expect-ct\"\n1 < Report-To: {\"endpoints\":[{\"url\":\"https:\\\/\\\/a.nel.cloudflare.com\\\/report\\\/v3?s=2ipikX3%2BkcHDI60u2a06iPz%2BTEDIjn3woKoKK4Q4uKcZSOCV%2B02KvcbLFCb9Dl2V9%2Fs%2Fg0UNuAnv%2BQgO8tP5hTsTw0NCxg%2F1nu2R8mFw8bicstWFCtiYA1GxlbTpjHM%3D\"}],\"group\":\"cf-nel\",\"max_age\":604800}\n1 < NEL: {\"success_fraction\":0,\"report_to\":\"cf-nel\",\"max_age\":604800}\n1 < Server: cloudflare\n1 < CF-RAY: 72dce48119487a0c-PAT\n1 < alt-svc: h3=\":443\"; ma=86400, h3-29=\":443\"; ma=86400\n{\"meta\":{\"pagination\":{\"total\":502,\"pages\":51,\"page\":1,\"limit\":10,\"links\":{\"previous\":null,\"current\":\"https:\/\/gorest.co.in\/public\/v1\/users?page=1\",\"next\":\"https:\/\/gorest.co.in\/public\/v1\/users?page=2\"}}},\"data\":[{\"id\":2246,\"name\":\"Vimala Mukhopadhyay\",\"email\":\"vimala_mukhopadhyay@roob.biz\",\"gender\":\"male\",\"status\":\"active\"},{\"id\":2232,\"name\":\"Miss Dinesh Bandopadhyay\",\"email\":\"miss_dinesh_bandopadhyay@daugherty-brekke.com\",\"gender\":\"male\",\"status\":\"active\"},{\"id\":2223,\"name\":\"Hiranmay Mishra PhD\",\"email\":\"hiranmay_mishra_phd@olson.io\",\"gender\":\"male\",\"status\":\"active\"},{\"id\":2218,\"name\":\"Anilaabh Pillai\",\"email\":\"pillai_anilaabh@roberts-krajcik.io\",\"gender\":\"male\",\"status\":\"active\"},{\"id\":2217,\"name\":\"Dr. Chaaruchandra Naik\",\"email\":\"chaaruchandra_dr_naik@feeney.biz\",\"gender\":\"male\",\"status\":\"active\"},{\"id\":2216,\"name\":\"Meena Menon II\",\"email\":\"meena_menon_ii@rau.org\",\"gender\":\"male\",\"status\":\"active\"},{\"id\":2213,\"name\":\"Harinakshi Bhattacharya\",\"email\":\"harinakshi_bhattacharya@vandervort-kessler.co\",\"gender\":\"male\",\"status\":\"active\"},{\"id\":2211,\"name\":\"Fr. Amodini Varma\",\"email\":\"varma_fr_amodini@prohaska-parker.co\",\"gender\":\"male\",\"status\":\"active\"},{\"id\":2209,\"name\":\"Jaimini Somayaji Sr.\",\"email\":\"somayaji_jaimini_sr@stroman.co\",\"gender\":\"male\",\"status\":\"active\"},{\"id\":2205,\"name\":\"Anurag Kaur\",\"email\":\"anurag_kaur@howell-boyer.net\",\"gender\":\"male\",\"status\":\"active\"}]}\n\n","line":8}},{"name":"status 200","result":{"duration":55799,"status":"passed"},"match":{"location":"karate","arguments":[]},"keyword":"Then","line":9},{"name":"print response","result":{"duration":24138999,"status":"passed"},"match":{"location":"karate","arguments":[]},"keyword":"*","line":10,"doc_string":{"content_type":"","value":"21:27:27.751 [print] {\n  \"meta\": {\n    \"pagination\": {\n      \"total\": 502,\n      \"pages\": 51,\n      \"page\": 1,\n      \"limit\": 10,\n      \"links\": {\n        \"previous\": null,\n        \"current\": \"https:\/\/gorest.co.in\/public\/v1\/users?page=1\",\n        \"next\": \"https:\/\/gorest.co.in\/public\/v1\/users?page=2\"\n      }\n    }\n  },\n  \"data\": [\n    {\n      \"id\": 2246,\n      \"name\": \"Vimala Mukhopadhyay\",\n      \"email\": \"vimala_mukhopadhyay@roob.biz\",\n      \"gender\": \"male\",\n      \"status\": \"active\"\n    },\n    {\n      \"id\": 2232,\n      \"name\": \"Miss Dinesh Bandopadhyay\",\n      \"email\": \"miss_dinesh_bandopadhyay@daugherty-brekke.com\",\n      \"gender\": \"male\",\n      \"status\": \"active\"\n    },\n    {\n      \"id\": 2223,\n      \"name\": \"Hiranmay Mishra PhD\",\n      \"email\": \"hiranmay_mishra_phd@olson.io\",\n      \"gender\": \"male\",\n      \"status\": \"active\"\n    },\n    {\n      \"id\": 2218,\n      \"name\": \"Anilaabh Pillai\",\n      \"email\": \"pillai_anilaabh@roberts-krajcik.io\",\n      \"gender\": \"male\",\n      \"status\": \"active\"\n    },\n    {\n      \"id\": 2217,\n      \"name\": \"Dr. Chaaruchandra Naik\",\n      \"email\": \"chaaruchandra_dr_naik@feeney.biz\",\n      \"gender\": \"male\",\n      \"status\": \"active\"\n    },\n    {\n      \"id\": 2216,\n      \"name\": \"Meena Menon II\",\n      \"email\": \"meena_menon_ii@rau.org\",\n      \"gender\": \"male\",\n      \"status\": \"active\"\n    },\n    {\n      \"id\": 2213,\n      \"name\": \"Harinakshi Bhattacharya\",\n      \"email\": \"harinakshi_bhattacharya@vandervort-kessler.co\",\n      \"gender\": \"male\",\n      \"status\": \"active\"\n    },\n    {\n      \"id\": 2211,\n      \"name\": \"Fr. Amodini Varma\",\n      \"email\": \"varma_fr_amodini@prohaska-parker.co\",\n      \"gender\": \"male\",\n      \"status\": \"active\"\n    },\n    {\n      \"id\": 2209,\n      \"name\": \"Jaimini Somayaji Sr.\",\n      \"email\": \"somayaji_jaimini_sr@stroman.co\",\n      \"gender\": \"male\",\n      \"status\": \"active\"\n    },\n    {\n      \"id\": 2205,\n      \"name\": \"Anurag Kaur\",\n      \"email\": \"anurag_kaur@howell-boyer.net\",\n      \"gender\": \"male\",\n      \"status\": \"active\"\n    }\n  ]\n}\n \n","line":10}},{"name":"def temp = response","result":{"duration":946800,"status":"passed"},"match":{"location":"karate","arguments":[]},"keyword":"*","line":11},{"name":"print temp.id","result":{"duration":3991600,"status":"passed"},"match":{"location":"karate","arguments":[]},"keyword":"*","line":12,"doc_string":{"content_type":"","value":"21:27:27.757 [print] null \n","line":12}},{"name":"def count = temp.data.length","result":{"duration":1455000,"status":"passed"},"match":{"location":"karate","arguments":[]},"keyword":"*","line":13},{"name":"print count","result":{"duration":1717599,"status":"passed"},"match":{"location":"karate","arguments":[]},"keyword":"*","line":14,"doc_string":{"content_type":"","value":"21:27:27.761 [print] 10 \n","line":14}}],"tags":[{"name":"@SmokeTest","line":2},{"name":"@RegressionTest","line":2}]}],"name":"Features\/getwithquery.feature","description":"get Method Json Example","id":"get-method-json-example","keyword":"Feature","uri":"Features\/getwithquery.feature"}]